<?xml version="1.0" encoding="utf-8" standalone="no"?>
<!DOCTYPE svg PUBLIC "-//W3C//DTD SVG 1.1//EN"
  "http://www.w3.org/Graphics/SVG/1.1/DTD/svg11.dtd">
<!-- Created with matplotlib (http://matplotlib.org/) -->
<svg height="187.92pt" version="1.1" viewBox="0 0 411.84 187.92" width="411.84pt" xmlns="http://www.w3.org/2000/svg" xmlns:xlink="http://www.w3.org/1999/xlink">
 <defs>
  <style type="text/css">
*{stroke-linecap:butt;stroke-linejoin:round;}
  </style>
 </defs>
 <g id="figure_1">
  <g id="patch_1">
   <path d="M 0 187.92 
L 411.84 187.92 
L 411.84 0 
L 0 0 
z
" style="fill:#ffffff;"/>
  </g>
  <g id="axes_1">
   <g id="patch_2">
    <path d="M 32.490576 167.2488 
L 275.730832 167.2488 
L 275.730832 11.820128 
L 32.490576 11.820128 
z
" style="fill:#ffffff;"/>
   </g>
   <g id="matplotlib.axis_1">
    <g id="xtick_1">
     <g id="line2d_1">
      <defs>
       <path d="M 0 0 
L 0 3.5 
" id="m3e4e76315f" style="stroke:#000000;stroke-width:0.8;"/>
      </defs>
      <g>
       <use style="stroke:#000000;stroke-width:0.8;" x="43.546951" xlink:href="#m3e4e76315f" y="167.2488"/>
      </g>
     </g>
     <g id="text_1">
      <!-- 0.0 -->
      <defs>
       <path d="M 31.78125 66.40625 
Q 24.171875 66.40625 20.328125 58.90625 
Q 16.5 51.421875 16.5 36.375 
Q 16.5 21.390625 20.328125 13.890625 
Q 24.171875 6.390625 31.78125 6.390625 
Q 39.453125 6.390625 43.28125 13.890625 
Q 47.125 21.390625 47.125 36.375 
Q 47.125 51.421875 43.28125 58.90625 
Q 39.453125 66.40625 31.78125 66.40625 
z
M 31.78125 74.21875 
Q 44.046875 74.21875 50.515625 64.515625 
Q 56.984375 54.828125 56.984375 36.375 
Q 56.984375 17.96875 50.515625 8.265625 
Q 44.046875 -1.421875 31.78125 -1.421875 
Q 19.53125 -1.421875 13.0625 8.265625 
Q 6.59375 17.96875 6.59375 36.375 
Q 6.59375 54.828125 13.0625 64.515625 
Q 19.53125 74.21875 31.78125 74.21875 
z
" id="DejaVuSans-30"/>
       <path d="M 10.6875 12.40625 
L 21 12.40625 
L 21 0 
L 10.6875 0 
z
" id="DejaVuSans-2e"/>
      </defs>
      <g transform="translate(35.595388 181.847238)scale(0.1 -0.1)">
       <use xlink:href="#DejaVuSans-30"/>
       <use x="63.623047" xlink:href="#DejaVuSans-2e"/>
       <use x="95.410156" xlink:href="#DejaVuSans-30"/>
      </g>
     </g>
    </g>
    <g id="xtick_2">
     <g id="line2d_2">
      <g>
       <use style="stroke:#000000;stroke-width:0.8;" x="87.772452" xlink:href="#m3e4e76315f" y="167.2488"/>
      </g>
     </g>
     <g id="text_2">
      <!-- 0.2 -->
      <defs>
       <path d="M 19.1875 8.296875 
L 53.609375 8.296875 
L 53.609375 0 
L 7.328125 0 
L 7.328125 8.296875 
Q 12.9375 14.109375 22.625 23.890625 
Q 32.328125 33.6875 34.8125 36.53125 
Q 39.546875 41.84375 41.421875 45.53125 
Q 43.3125 49.21875 43.3125 52.78125 
Q 43.3125 58.59375 39.234375 62.25 
Q 35.15625 65.921875 28.609375 65.921875 
Q 23.96875 65.921875 18.8125 64.3125 
Q 13.671875 62.703125 7.8125 59.421875 
L 7.8125 69.390625 
Q 13.765625 71.78125 18.9375 73 
Q 24.125 74.21875 28.421875 74.21875 
Q 39.75 74.21875 46.484375 68.546875 
Q 53.21875 62.890625 53.21875 53.421875 
Q 53.21875 48.921875 51.53125 44.890625 
Q 49.859375 40.875 45.40625 35.40625 
Q 44.1875 33.984375 37.640625 27.21875 
Q 31.109375 20.453125 19.1875 8.296875 
z
" id="DejaVuSans-32"/>
      </defs>
      <g transform="translate(79.82089 181.847238)scale(0.1 -0.1)">
       <use xlink:href="#DejaVuSans-30"/>
       <use x="63.623047" xlink:href="#DejaVuSans-2e"/>
       <use x="95.410156" xlink:href="#DejaVuSans-32"/>
      </g>
     </g>
    </g>
    <g id="xtick_3">
     <g id="line2d_3">
      <g>
       <use style="stroke:#000000;stroke-width:0.8;" x="131.997953" xlink:href="#m3e4e76315f" y="167.2488"/>
      </g>
     </g>
     <g id="text_3">
      <!-- 0.4 -->
      <defs>
       <path d="M 37.796875 64.3125 
L 12.890625 25.390625 
L 37.796875 25.390625 
z
M 35.203125 72.90625 
L 47.609375 72.90625 
L 47.609375 25.390625 
L 58.015625 25.390625 
L 58.015625 17.1875 
L 47.609375 17.1875 
L 47.609375 0 
L 37.796875 0 
L 37.796875 17.1875 
L 4.890625 17.1875 
L 4.890625 26.703125 
z
" id="DejaVuSans-34"/>
      </defs>
      <g transform="translate(124.046391 181.847238)scale(0.1 -0.1)">
       <use xlink:href="#DejaVuSans-30"/>
       <use x="63.623047" xlink:href="#DejaVuSans-2e"/>
       <use x="95.410156" xlink:href="#DejaVuSans-34"/>
      </g>
     </g>
    </g>
    <g id="xtick_4">
     <g id="line2d_4">
      <g>
       <use style="stroke:#000000;stroke-width:0.8;" x="176.223454" xlink:href="#m3e4e76315f" y="167.2488"/>
      </g>
     </g>
     <g id="text_4">
      <!-- 0.6 -->
      <defs>
       <path d="M 33.015625 40.375 
Q 26.375 40.375 22.484375 35.828125 
Q 18.609375 31.296875 18.609375 23.390625 
Q 18.609375 15.53125 22.484375 10.953125 
Q 26.375 6.390625 33.015625 6.390625 
Q 39.65625 6.390625 43.53125 10.953125 
Q 47.40625 15.53125 47.40625 23.390625 
Q 47.40625 31.296875 43.53125 35.828125 
Q 39.65625 40.375 33.015625 40.375 
z
M 52.59375 71.296875 
L 52.59375 62.3125 
Q 48.875 64.0625 45.09375 64.984375 
Q 41.3125 65.921875 37.59375 65.921875 
Q 27.828125 65.921875 22.671875 59.328125 
Q 17.53125 52.734375 16.796875 39.40625 
Q 19.671875 43.65625 24.015625 45.921875 
Q 28.375 48.1875 33.59375 48.1875 
Q 44.578125 48.1875 50.953125 41.515625 
Q 57.328125 34.859375 57.328125 23.390625 
Q 57.328125 12.15625 50.6875 5.359375 
Q 44.046875 -1.421875 33.015625 -1.421875 
Q 20.359375 -1.421875 13.671875 8.265625 
Q 6.984375 17.96875 6.984375 36.375 
Q 6.984375 53.65625 15.1875 63.9375 
Q 23.390625 74.21875 37.203125 74.21875 
Q 40.921875 74.21875 44.703125 73.484375 
Q 48.484375 72.75 52.59375 71.296875 
z
" id="DejaVuSans-36"/>
      </defs>
      <g transform="translate(168.271892 181.847238)scale(0.1 -0.1)">
       <use xlink:href="#DejaVuSans-30"/>
       <use x="63.623047" xlink:href="#DejaVuSans-2e"/>
       <use x="95.410156" xlink:href="#DejaVuSans-36"/>
      </g>
     </g>
    </g>
    <g id="xtick_5">
     <g id="line2d_5">
      <g>
       <use style="stroke:#000000;stroke-width:0.8;" x="220.448955" xlink:href="#m3e4e76315f" y="167.2488"/>
      </g>
     </g>
     <g id="text_5">
      <!-- 0.8 -->
      <defs>
       <path d="M 31.78125 34.625 
Q 24.75 34.625 20.71875 30.859375 
Q 16.703125 27.09375 16.703125 20.515625 
Q 16.703125 13.921875 20.71875 10.15625 
Q 24.75 6.390625 31.78125 6.390625 
Q 38.8125 6.390625 42.859375 10.171875 
Q 46.921875 13.96875 46.921875 20.515625 
Q 46.921875 27.09375 42.890625 30.859375 
Q 38.875 34.625 31.78125 34.625 
z
M 21.921875 38.8125 
Q 15.578125 40.375 12.03125 44.71875 
Q 8.5 49.078125 8.5 55.328125 
Q 8.5 64.0625 14.71875 69.140625 
Q 20.953125 74.21875 31.78125 74.21875 
Q 42.671875 74.21875 48.875 69.140625 
Q 55.078125 64.0625 55.078125 55.328125 
Q 55.078125 49.078125 51.53125 44.71875 
Q 48 40.375 41.703125 38.8125 
Q 48.828125 37.15625 52.796875 32.3125 
Q 56.78125 27.484375 56.78125 20.515625 
Q 56.78125 9.90625 50.3125 4.234375 
Q 43.84375 -1.421875 31.78125 -1.421875 
Q 19.734375 -1.421875 13.25 4.234375 
Q 6.78125 9.90625 6.78125 20.515625 
Q 6.78125 27.484375 10.78125 32.3125 
Q 14.796875 37.15625 21.921875 38.8125 
z
M 18.3125 54.390625 
Q 18.3125 48.734375 21.84375 45.5625 
Q 25.390625 42.390625 31.78125 42.390625 
Q 38.140625 42.390625 41.71875 45.5625 
Q 45.3125 48.734375 45.3125 54.390625 
Q 45.3125 60.0625 41.71875 63.234375 
Q 38.140625 66.40625 31.78125 66.40625 
Q 25.390625 66.40625 21.84375 63.234375 
Q 18.3125 60.0625 18.3125 54.390625 
z
" id="DejaVuSans-38"/>
      </defs>
      <g transform="translate(212.497393 181.847238)scale(0.1 -0.1)">
       <use xlink:href="#DejaVuSans-30"/>
       <use x="63.623047" xlink:href="#DejaVuSans-2e"/>
       <use x="95.410156" xlink:href="#DejaVuSans-38"/>
      </g>
     </g>
    </g>
    <g id="xtick_6">
     <g id="line2d_6">
      <g>
       <use style="stroke:#000000;stroke-width:0.8;" x="264.674456" xlink:href="#m3e4e76315f" y="167.2488"/>
      </g>
     </g>
     <g id="text_6">
      <!-- 1.0 -->
      <defs>
       <path d="M 12.40625 8.296875 
L 28.515625 8.296875 
L 28.515625 63.921875 
L 10.984375 60.40625 
L 10.984375 69.390625 
L 28.421875 72.90625 
L 38.28125 72.90625 
L 38.28125 8.296875 
L 54.390625 8.296875 
L 54.390625 0 
L 12.40625 0 
z
" id="DejaVuSans-31"/>
      </defs>
      <g transform="translate(256.722894 181.847238)scale(0.1 -0.1)">
       <use xlink:href="#DejaVuSans-31"/>
       <use x="63.623047" xlink:href="#DejaVuSans-2e"/>
       <use x="95.410156" xlink:href="#DejaVuSans-30"/>
      </g>
     </g>
    </g>
   </g>
   <g id="matplotlib.axis_2">
    <g id="ytick_1">
     <g id="line2d_7">
      <defs>
       <path d="M 0 0 
L -3.5 0 
" id="mbf861c2106" style="stroke:#000000;stroke-width:0.8;"/>
      </defs>
      <g>
       <use style="stroke:#000000;stroke-width:0.8;" x="32.490576" xlink:href="#mbf861c2106" y="141.344002"/>
      </g>
     </g>
     <g id="text_7">
      <!-- 0.6 -->
      <g transform="translate(9.587451 145.143221)scale(0.1 -0.1)">
       <use xlink:href="#DejaVuSans-30"/>
       <use x="63.623047" xlink:href="#DejaVuSans-2e"/>
       <use x="95.410156" xlink:href="#DejaVuSans-36"/>
      </g>
     </g>
    </g>
    <g id="ytick_2">
     <g id="line2d_8">
      <g>
       <use style="stroke:#000000;stroke-width:0.8;" x="32.490576" xlink:href="#mbf861c2106" y="103.664287"/>
      </g>
     </g>
     <g id="text_8">
      <!-- 0.8 -->
      <g transform="translate(9.587451 107.463505)scale(0.1 -0.1)">
       <use xlink:href="#DejaVuSans-30"/>
       <use x="63.623047" xlink:href="#DejaVuSans-2e"/>
       <use x="95.410156" xlink:href="#DejaVuSans-38"/>
      </g>
     </g>
    </g>
    <g id="ytick_3">
     <g id="line2d_9">
      <g>
       <use style="stroke:#000000;stroke-width:0.8;" x="32.490576" xlink:href="#mbf861c2106" y="65.984571"/>
      </g>
     </g>
     <g id="text_9">
      <!-- 1.0 -->
      <g transform="translate(9.587451 69.78379)scale(0.1 -0.1)">
       <use xlink:href="#DejaVuSans-31"/>
       <use x="63.623047" xlink:href="#DejaVuSans-2e"/>
       <use x="95.410156" xlink:href="#DejaVuSans-30"/>
      </g>
     </g>
    </g>
    <g id="ytick_4">
     <g id="line2d_10">
      <g>
       <use style="stroke:#000000;stroke-width:0.8;" x="32.490576" xlink:href="#mbf861c2106" y="28.304855"/>
      </g>
     </g>
     <g id="text_10">
      <!-- 1.2 -->
      <g transform="translate(9.587451 32.104074)scale(0.1 -0.1)">
       <use xlink:href="#DejaVuSans-31"/>
       <use x="63.623047" xlink:href="#DejaVuSans-2e"/>
       <use x="95.410156" xlink:href="#DejaVuSans-32"/>
      </g>
     </g>
    </g>
   </g>
   <g id="line2d_11">
    <path clip-path="url(#pec8ce44363)" d="M 43.546951 65.984571 
L 264.674456 65.984571 
L 264.674456 65.984571 
" style="fill:none;stroke:#1f77b4;stroke-linecap:square;stroke-width:1.5;"/>
   </g>
   <g id="line2d_12">
    <path clip-path="url(#pec8ce44363)" d="M 43.546951 160.18386 
L 48.637975 147.470933 
L 53.728998 135.357181 
L 58.598673 124.330778 
L 63.468348 113.852581 
L 68.116674 104.362059 
L 72.765 95.371039 
L 77.191977 87.272551 
L 81.618954 79.627125 
L 86.045931 72.434762 
L 90.251559 66.021665 
L 94.457187 60.017458 
L 98.441467 54.706435 
L 102.425746 49.762393 
L 106.188677 45.429985 
L 109.951607 41.424915 
L 113.714538 37.747182 
L 117.256119 34.584808 
L 120.797701 31.712393 
L 124.339283 29.129938 
L 127.659516 26.972229 
L 130.979748 25.069367 
L 134.299981 23.421353 
L 137.620214 22.028187 
L 140.719098 20.957827 
L 143.817982 20.109468 
L 146.916866 19.48311 
L 150.01575 19.078752 
L 153.114634 18.896394 
L 156.213518 18.936037 
L 159.312402 19.197681 
L 162.411286 19.681324 
L 165.51017 20.386969 
L 168.609054 21.314614 
L 171.707938 22.464259 
L 175.02817 23.942375 
L 178.348403 25.675338 
L 181.668636 27.663149 
L 184.988869 29.905807 
L 188.53045 32.578874 
L 192.072032 35.541902 
L 195.613614 38.794889 
L 199.376544 42.568897 
L 203.139475 46.670243 
L 206.902405 51.098927 
L 210.886685 56.144908 
L 214.870964 61.557869 
L 218.855243 67.337811 
L 223.060872 73.836989 
L 227.2665 80.745056 
L 231.693477 88.458441 
L 236.120454 96.624888 
L 240.76878 105.687266 
L 245.417106 115.249145 
L 250.065432 125.310525 
L 254.935107 136.386765 
L 259.804781 148.01121 
L 264.674456 160.18386 
L 264.674456 160.18386 
" style="fill:none;stroke:#ff7f0e;stroke-linecap:square;stroke-width:1.5;"/>
   </g>
   <g id="line2d_13">
    <path clip-path="url(#pec8ce44363)" d="M 43.546951 160.18386 
L 48.637975 147.470933 
L 53.728998 135.357181 
L 58.598673 124.330778 
L 63.468348 113.852581 
L 68.116674 104.362059 
L 72.765 95.371039 
L 77.191977 87.272551 
L 81.618954 79.627125 
L 86.045931 72.434762 
L 90.251559 66.021665 
L 94.457187 60.017458 
L 98.441467 54.706435 
L 102.425746 49.762393 
L 106.188677 45.429985 
L 109.951607 41.424915 
L 113.714538 37.747182 
L 117.256119 34.584808 
L 120.797701 31.712393 
L 124.339283 29.129938 
L 127.659516 26.972229 
L 130.979748 25.069367 
L 134.299981 23.421353 
L 137.620214 22.028187 
L 140.719098 20.957827 
L 143.817982 20.109468 
L 146.916866 19.48311 
L 150.01575 19.078752 
L 153.114634 18.896394 
L 156.213518 18.936037 
L 159.312402 19.197681 
L 162.411286 19.681324 
L 165.51017 20.386969 
L 168.609054 21.314614 
L 171.707938 22.464259 
L 175.02817 23.942375 
L 178.348403 25.675338 
L 181.668636 27.663149 
L 184.988869 29.905807 
L 188.53045 32.578874 
L 192.072032 35.541902 
L 195.613614 38.794889 
L 199.376544 42.568897 
L 203.139475 46.670243 
L 206.902405 51.098927 
L 210.886685 56.144908 
L 214.870964 61.557869 
L 218.855243 67.337811 
L 223.060872 73.836989 
L 227.2665 80.745056 
L 231.693477 88.458441 
L 236.120454 96.624888 
L 240.76878 105.687266 
L 245.417106 115.249145 
L 250.065432 125.310525 
L 254.935107 136.386765 
L 259.804781 148.01121 
L 264.674456 160.18386 
L 264.674456 160.18386 
" style="fill:none;stroke:#2ca02c;stroke-linecap:square;stroke-width:1.5;"/>
   </g>
   <g id="line2d_14">
    <path clip-path="url(#pec8ce44363)" d="M 43.546951 160.18386 
L 46.867184 149.244572 
L 50.187417 139.032231 
L 53.507649 129.510296 
L 56.827882 120.643374 
L 60.148115 112.397222 
L 63.468348 104.738744 
L 66.788581 97.635997 
L 70.108813 91.058184 
L 73.429046 84.975657 
L 76.749279 79.359919 
L 80.069512 74.183622 
L 83.389745 69.420564 
L 86.709978 65.045696 
L 90.03021 61.035116 
L 93.350443 57.366071 
L 96.670676 54.016959 
L 99.990909 50.967326 
L 103.53249 48.022745 
L 107.074072 45.374966 
L 110.615654 43.003487 
L 114.157235 40.889298 
L 117.920166 38.905306 
L 121.683096 37.17282 
L 125.667376 35.593379 
L 129.651655 34.258344 
L 133.635935 33.151898 
L 137.841563 32.217161 
L 142.047191 31.509249 
L 146.252819 31.018197 
L 150.679796 30.727922 
L 155.106773 30.665572 
L 159.533751 30.830147 
L 163.960728 31.224281 
L 168.166356 31.817002 
L 172.371984 32.630934 
L 176.577612 33.677443 
L 180.561892 34.896355 
L 184.546171 36.351467 
L 188.309102 37.95792 
L 192.072032 39.806492 
L 195.613614 41.783755 
L 199.155195 44.008264 
L 202.696777 46.498196 
L 206.238359 49.273216 
L 209.558592 52.152503 
L 212.878824 55.319547 
L 216.199057 58.794113 
L 219.51929 62.597115 
L 222.839523 66.750616 
L 226.159756 71.277827 
L 229.479988 76.20311 
L 232.800221 81.551976 
L 236.120454 87.351083 
L 239.440687 93.62824 
L 242.76092 100.412405 
L 246.081153 107.733685 
L 249.401385 115.623334 
L 252.721618 124.113758 
L 256.041851 133.238512 
L 259.362084 143.032298 
L 262.682317 153.530969 
L 264.674456 160.18386 
L 264.674456 160.18386 
" style="fill:none;stroke:#d62728;stroke-linecap:square;stroke-width:1.5;"/>
   </g>
   <g id="line2d_15">
    <path clip-path="url(#pec8ce44363)" d="M 43.546951 160.18386 
L 46.203137 147.204303 
L 48.859323 135.371677 
L 51.51551 124.612761 
L 53.950347 115.633875 
L 56.385185 107.446916 
L 58.820022 100.002566 
L 61.254859 93.253614 
L 63.689697 87.154896 
L 66.124534 81.663225 
L 68.559371 76.737329 
L 70.994209 72.33779 
L 73.429046 68.426982 
L 75.863884 64.969013 
L 78.077372 62.189542 
L 80.290861 59.73148 
L 82.725698 57.370864 
L 85.160536 55.341001 
L 87.595373 53.613586 
L 90.03021 52.16174 
L 92.465048 50.959964 
L 95.121234 49.905781 
L 97.77742 49.090846 
L 100.654955 48.445711 
L 103.753839 47.990429 
L 107.074072 47.735599 
L 110.837003 47.684414 
L 115.042631 47.857924 
L 120.355003 48.317714 
L 128.544911 49.286859 
L 139.169656 50.503879 
L 145.588773 51.008287 
L 151.343843 51.238331 
L 156.877564 51.238331 
L 162.632635 51.008287 
L 168.830402 50.525023 
L 176.356263 49.696869 
L 191.186637 48.004957 
L 196.056311 47.716198 
L 200.040591 47.696787 
L 203.582173 47.900679 
L 206.681056 48.29193 
L 209.558592 48.867502 
L 212.214778 49.608964 
L 214.870964 50.580195 
L 217.305801 51.697096 
L 219.740639 53.055128 
L 222.175476 54.6793 
L 224.610314 56.595983 
L 226.823802 58.615604 
L 229.037291 60.921827 
L 231.250779 63.537593 
L 233.464268 66.486904 
L 235.677756 69.794849 
L 237.891245 73.487644 
L 240.104733 77.592665 
L 242.318222 82.138482 
L 244.531711 87.154896 
L 246.966548 93.253614 
L 249.401385 100.002566 
L 251.836223 107.446916 
L 254.27106 115.633875 
L 256.705898 124.612761 
L 259.140735 134.435076 
L 261.575572 145.15457 
L 264.01041 156.827315 
L 264.674456 160.18386 
L 264.674456 160.18386 
" style="fill:none;stroke:#9467bd;stroke-linecap:square;stroke-width:1.5;"/>
   </g>
   <g id="line2d_16">
    <path clip-path="url(#pec8ce44363)" d="M 43.546951 160.18386 
L 45.317742 144.55363 
L 47.088533 130.734004 
L 48.859323 118.555181 
L 50.630114 107.860756 
L 52.400905 98.506828 
L 54.171696 90.361152 
L 55.942487 83.30234 
L 57.713278 77.219112 
L 59.484068 72.009589 
L 61.03351 68.094538 
L 62.582952 64.719692 
L 64.132394 61.83221 
L 65.681836 59.383411 
L 67.231278 57.328503 
L 68.78072 55.626322 
L 70.330162 54.239094 
L 71.879604 53.132203 
L 73.429046 52.273975 
L 75.199837 51.560623 
L 76.970628 51.095195 
L 78.962768 50.824307 
L 80.954907 50.778255 
L 83.168396 50.943227 
L 85.824582 51.378245 
L 88.923466 52.127041 
L 92.907745 53.337621 
L 99.76956 55.705173 
L 107.959468 58.467273 
L 113.493189 60.101448 
L 118.805561 61.438118 
L 124.117934 62.538511 
L 129.430306 63.412333 
L 134.964028 64.102039 
L 140.940447 64.621929 
L 147.359564 64.950631 
L 154.000029 65.064625 
L 160.640495 64.958036 
L 167.059612 64.637064 
L 173.25738 64.102039 
L 179.01245 63.380218 
L 184.324822 62.497294 
L 189.637195 61.387159 
L 194.949567 60.040663 
L 200.483289 58.397247 
L 207.123754 56.170275 
L 217.748499 52.572129 
L 221.290081 51.620333 
L 224.167616 51.062674 
L 226.602453 50.805943 
L 228.815942 50.796103 
L 230.808082 51.013374 
L 232.578872 51.422462 
L 234.349663 52.070324 
L 235.899105 52.862937 
L 237.448547 53.895672 
L 238.997989 55.199404 
L 240.547431 56.807886 
L 242.096873 58.757968 
L 243.646315 61.089819 
L 245.195757 63.84717 
L 246.745199 67.077565 
L 248.294641 70.832626 
L 249.844083 75.168341 
L 251.393525 80.145358 
L 252.942967 85.829303 
L 254.492409 92.291114 
L 256.2632 100.727063 
L 258.033991 110.403275 
L 259.804781 121.454835 
L 261.575572 134.028688 
L 263.346363 148.284503 
L 264.674456 160.18386 
L 264.674456 160.18386 
" style="fill:none;stroke:#8c564b;stroke-linecap:square;stroke-width:1.5;"/>
   </g>
   <g id="line2d_17">
    <path clip-path="url(#pec8ce44363)" d="M 43.546951 160.18386 
L 44.875044 138.457605 
L 46.203137 120.410113 
L 47.53123 105.509385 
L 48.859323 93.292301 
L 50.187417 83.356483 
L 51.294161 76.566102 
L 52.400905 70.940116 
L 53.507649 66.322155 
L 54.614394 62.574071 
L 55.721138 59.574029 
L 56.827882 57.21478 
L 57.934626 55.402098 
L 59.041371 54.053376 
L 60.148115 53.096355 
L 61.254859 52.467977 
L 62.361604 52.113358 
L 63.468348 51.984861 
L 64.796441 52.071514 
L 66.345883 52.429269 
L 68.116674 53.081353 
L 70.551511 54.241974 
L 75.642535 57.010858 
L 79.848163 59.170981 
L 83.389745 60.733005 
L 86.709978 61.951636 
L 90.03021 62.939896 
L 93.571792 63.766983 
L 97.556071 64.462295 
L 101.983048 65.00514 
L 107.295421 65.424992 
L 114.157235 65.725824 
L 123.896585 65.905754 
L 142.26854 65.978402 
L 184.324822 65.905754 
L 195.392265 65.682889 
L 202.475428 65.323508 
L 207.787801 64.838609 
L 212.214778 64.218251 
L 216.199057 63.431787 
L 219.740639 62.506106 
L 223.060872 61.412594 
L 226.381105 60.082346 
L 229.922686 58.408122 
L 234.349663 56.039847 
L 239.219338 53.476427 
L 241.432827 52.571586 
L 242.982269 52.148858 
L 244.310362 51.987345 
L 245.417106 52.037268 
L 246.52385 52.296099 
L 247.630595 52.808813 
L 248.51599 53.436389 
L 249.401385 54.289612 
L 250.286781 55.402098 
L 251.172176 56.81132 
L 252.27892 59.054109 
L 253.385665 61.917851 
L 254.492409 65.50707 
L 255.599153 69.940553 
L 256.705898 75.353036 
L 257.812642 81.897084 
L 258.919386 89.745152 
L 260.02613 99.09187 
L 261.132875 110.156566 
L 262.239619 123.186035 
L 263.567712 141.807721 
L 264.674456 160.18386 
L 264.674456 160.18386 
" style="fill:none;stroke:#e377c2;stroke-linecap:square;stroke-width:1.5;"/>
   </g>
   <g id="line2d_18">
    <path clip-path="url(#pec8ce44363)" d="M 43.546951 160.18386 
L 44.432346 127.013851 
L 45.317742 102.760106 
L 46.203137 85.308553 
L 47.088533 73.008823 
L 47.752579 66.381675 
L 48.416626 61.493975 
L 49.080672 57.991345 
L 49.744719 55.583323 
L 50.408765 54.032695 
L 51.072812 53.146501 
L 51.51551 52.846357 
L 51.958207 52.732868 
L 52.622254 52.841008 
L 53.286301 53.201676 
L 54.171696 53.949314 
L 55.721138 55.643778 
L 59.041371 59.396446 
L 60.812162 61.035944 
L 62.582952 62.350015 
L 64.353743 63.363525 
L 66.124534 64.123328 
L 68.116674 64.738199 
L 70.551511 65.236168 
L 73.429046 65.585028 
L 77.413326 65.823451 
L 83.832442 65.950299 
L 101.097653 65.984235 
L 228.594593 65.889017 
L 233.906966 65.656816 
L 237.227198 65.303916 
L 239.662036 64.846821 
L 241.875524 64.20303 
L 243.646315 63.471321 
L 245.417106 62.492293 
L 246.966548 61.394622 
L 248.51599 60.049177 
L 250.286781 58.21654 
L 254.713758 53.36469 
L 255.599153 52.841008 
L 256.2632 52.732868 
L 256.705898 52.846357 
L 257.148595 53.146501 
L 257.591293 53.671877 
L 258.033991 54.467038 
L 258.698037 56.280007 
L 259.362084 59.024112 
L 260.02613 62.953239 
L 260.690177 68.377879 
L 261.354223 75.676423 
L 262.01827 85.308553 
L 262.682317 97.831091 
L 263.346363 113.916719 
L 264.01041 134.376086 
L 264.674456 160.18386 
L 264.674456 160.18386 
" style="fill:none;stroke:#7f7f7f;stroke-linecap:square;stroke-width:1.5;"/>
   </g>
   <g id="line2d_19">
    <path clip-path="url(#pec8ce44363)" d="M 43.546951 160.18386 
L 44.210998 114.357278 
L 44.875044 85.963358 
L 45.539091 69.074424 
L 45.981788 62.151623 
L 46.424486 57.663627 
L 46.867184 54.955532 
L 47.309881 53.528834 
L 47.752579 53.006609 
L 47.973928 52.993252 
L 48.416626 53.320917 
L 49.080672 54.38503 
L 50.408765 57.264388 
L 51.736859 59.976936 
L 52.843603 61.761168 
L 53.950347 63.094956 
L 55.057091 64.048575 
L 56.163836 64.709249 
L 57.491929 65.225857 
L 59.041371 65.579301 
L 61.254859 65.824446 
L 64.796441 65.95062 
L 74.757139 65.984259 
L 245.417106 65.902598 
L 248.51599 65.676685 
L 250.286781 65.348938 
L 251.614874 64.90975 
L 252.721618 64.343246 
L 253.828362 63.517138 
L 254.713758 62.611805 
L 255.599153 61.4418 
L 256.705898 59.564187 
L 258.033991 56.771827 
L 259.362084 53.976776 
L 260.02613 53.106078 
L 260.247479 52.993252 
L 260.468828 53.006609 
L 260.690177 53.174265 
L 260.911526 53.528834 
L 261.354223 54.955532 
L 261.796921 57.663627 
L 262.239619 62.151623 
L 262.682317 69.074424 
L 263.125014 79.287442 
L 263.567712 93.902334 
L 264.01041 114.357278 
L 264.453107 142.505439 
L 264.674456 160.18386 
L 264.674456 160.18386 
" style="fill:none;stroke:#bcbd22;stroke-linecap:square;stroke-width:1.5;"/>
   </g>
   <g id="line2d_20">
    <path clip-path="url(#pec8ce44363)" d="M 43.546951 160.18386 
L 43.7683 65.880661 
L 43.989649 53.210824 
L 44.653695 63.48059 
L 44.875044 64.840797 
L 45.096393 65.483497 
L 45.539091 65.895792 
L 46.203137 65.978702 
L 53.286301 65.984571 
L 262.682317 65.895792 
L 262.903665 65.771365 
L 263.125014 65.483497 
L 263.346363 64.840797 
L 263.567712 63.48059 
L 263.789061 60.850086 
L 264.231759 53.210824 
L 264.453107 65.880661 
L 264.674456 160.18386 
L 264.674456 160.18386 
" style="fill:none;stroke:#17becf;stroke-linecap:square;stroke-width:1.5;"/>
   </g>
   <g id="patch_3">
    <path d="M 32.490576 167.2488 
L 32.490576 11.820128 
" style="fill:none;stroke:#000000;stroke-linecap:square;stroke-linejoin:miter;stroke-width:0.8;"/>
   </g>
   <g id="patch_4">
    <path d="M 275.730832 167.2488 
L 275.730832 11.820128 
" style="fill:none;stroke:#000000;stroke-linecap:square;stroke-linejoin:miter;stroke-width:0.8;"/>
   </g>
   <g id="patch_5">
    <path d="M 32.490576 167.2488 
L 275.730832 167.2488 
" style="fill:none;stroke:#000000;stroke-linecap:square;stroke-linejoin:miter;stroke-width:0.8;"/>
   </g>
   <g id="patch_6">
    <path d="M 32.490576 11.820128 
L 275.730832 11.820128 
" style="fill:none;stroke:#000000;stroke-linecap:square;stroke-linejoin:miter;stroke-width:0.8;"/>
   </g>
   <g id="legend_1">
    <g id="patch_7">
     <path d="M 287.595637 166.601378 
L 401.115949 166.601378 
Q 403.115949 166.601378 403.115949 164.601378 
L 403.115949 18.820128 
Q 403.115949 16.820128 401.115949 16.820128 
L 287.595637 16.820128 
Q 285.595637 16.820128 285.595637 18.820128 
L 285.595637 164.601378 
Q 285.595637 166.601378 287.595637 166.601378 
z
" style="fill:#ffffff;opacity:0.8;stroke:#cccccc;stroke-linejoin:miter;"/>
    </g>
    <g id="line2d_21">
     <path d="M 289.595637 24.918565 
L 309.595637 24.918565 
" style="fill:none;stroke:#1f77b4;stroke-linecap:square;stroke-width:1.5;"/>
    </g>
    <g id="line2d_22"/>
    <g id="text_11">
     <!-- 0 opponents -->
     <defs>
      <path id="DejaVuSans-20"/>
      <path d="M 30.609375 48.390625 
Q 23.390625 48.390625 19.1875 42.75 
Q 14.984375 37.109375 14.984375 27.296875 
Q 14.984375 17.484375 19.15625 11.84375 
Q 23.34375 6.203125 30.609375 6.203125 
Q 37.796875 6.203125 41.984375 11.859375 
Q 46.1875 17.53125 46.1875 27.296875 
Q 46.1875 37.015625 41.984375 42.703125 
Q 37.796875 48.390625 30.609375 48.390625 
z
M 30.609375 56 
Q 42.328125 56 49.015625 48.375 
Q 55.71875 40.765625 55.71875 27.296875 
Q 55.71875 13.875 49.015625 6.21875 
Q 42.328125 -1.421875 30.609375 -1.421875 
Q 18.84375 -1.421875 12.171875 6.21875 
Q 5.515625 13.875 5.515625 27.296875 
Q 5.515625 40.765625 12.171875 48.375 
Q 18.84375 56 30.609375 56 
z
" id="DejaVuSans-6f"/>
      <path d="M 18.109375 8.203125 
L 18.109375 -20.796875 
L 9.078125 -20.796875 
L 9.078125 54.6875 
L 18.109375 54.6875 
L 18.109375 46.390625 
Q 20.953125 51.265625 25.265625 53.625 
Q 29.59375 56 35.59375 56 
Q 45.5625 56 51.78125 48.09375 
Q 58.015625 40.1875 58.015625 27.296875 
Q 58.015625 14.40625 51.78125 6.484375 
Q 45.5625 -1.421875 35.59375 -1.421875 
Q 29.59375 -1.421875 25.265625 0.953125 
Q 20.953125 3.328125 18.109375 8.203125 
z
M 48.6875 27.296875 
Q 48.6875 37.203125 44.609375 42.84375 
Q 40.53125 48.484375 33.40625 48.484375 
Q 26.265625 48.484375 22.1875 42.84375 
Q 18.109375 37.203125 18.109375 27.296875 
Q 18.109375 17.390625 22.1875 11.75 
Q 26.265625 6.109375 33.40625 6.109375 
Q 40.53125 6.109375 44.609375 11.75 
Q 48.6875 17.390625 48.6875 27.296875 
z
" id="DejaVuSans-70"/>
      <path d="M 54.890625 33.015625 
L 54.890625 0 
L 45.90625 0 
L 45.90625 32.71875 
Q 45.90625 40.484375 42.875 44.328125 
Q 39.84375 48.1875 33.796875 48.1875 
Q 26.515625 48.1875 22.3125 43.546875 
Q 18.109375 38.921875 18.109375 30.90625 
L 18.109375 0 
L 9.078125 0 
L 9.078125 54.6875 
L 18.109375 54.6875 
L 18.109375 46.1875 
Q 21.34375 51.125 25.703125 53.5625 
Q 30.078125 56 35.796875 56 
Q 45.21875 56 50.046875 50.171875 
Q 54.890625 44.34375 54.890625 33.015625 
z
" id="DejaVuSans-6e"/>
      <path d="M 56.203125 29.59375 
L 56.203125 25.203125 
L 14.890625 25.203125 
Q 15.484375 15.921875 20.484375 11.0625 
Q 25.484375 6.203125 34.421875 6.203125 
Q 39.59375 6.203125 44.453125 7.46875 
Q 49.3125 8.734375 54.109375 11.28125 
L 54.109375 2.78125 
Q 49.265625 0.734375 44.1875 -0.34375 
Q 39.109375 -1.421875 33.890625 -1.421875 
Q 20.796875 -1.421875 13.15625 6.1875 
Q 5.515625 13.8125 5.515625 26.8125 
Q 5.515625 40.234375 12.765625 48.109375 
Q 20.015625 56 32.328125 56 
Q 43.359375 56 49.78125 48.890625 
Q 56.203125 41.796875 56.203125 29.59375 
z
M 47.21875 32.234375 
Q 47.125 39.59375 43.09375 43.984375 
Q 39.0625 48.390625 32.421875 48.390625 
Q 24.90625 48.390625 20.390625 44.140625 
Q 15.875 39.890625 15.1875 32.171875 
z
" id="DejaVuSans-65"/>
      <path d="M 18.3125 70.21875 
L 18.3125 54.6875 
L 36.8125 54.6875 
L 36.8125 47.703125 
L 18.3125 47.703125 
L 18.3125 18.015625 
Q 18.3125 11.328125 20.140625 9.421875 
Q 21.96875 7.515625 27.59375 7.515625 
L 36.8125 7.515625 
L 36.8125 0 
L 27.59375 0 
Q 17.1875 0 13.234375 3.875 
Q 9.28125 7.765625 9.28125 18.015625 
L 9.28125 47.703125 
L 2.6875 47.703125 
L 2.6875 54.6875 
L 9.28125 54.6875 
L 9.28125 70.21875 
z
" id="DejaVuSans-74"/>
      <path d="M 44.28125 53.078125 
L 44.28125 44.578125 
Q 40.484375 46.53125 36.375 47.5 
Q 32.28125 48.484375 27.875 48.484375 
Q 21.1875 48.484375 17.84375 46.4375 
Q 14.5 44.390625 14.5 40.28125 
Q 14.5 37.15625 16.890625 35.375 
Q 19.28125 33.59375 26.515625 31.984375 
L 29.59375 31.296875 
Q 39.15625 29.25 43.1875 25.515625 
Q 47.21875 21.78125 47.21875 15.09375 
Q 47.21875 7.46875 41.1875 3.015625 
Q 35.15625 -1.421875 24.609375 -1.421875 
Q 20.21875 -1.421875 15.453125 -0.5625 
Q 10.6875 0.296875 5.421875 2 
L 5.421875 11.28125 
Q 10.40625 8.6875 15.234375 7.390625 
Q 20.0625 6.109375 24.8125 6.109375 
Q 31.15625 6.109375 34.5625 8.28125 
Q 37.984375 10.453125 37.984375 14.40625 
Q 37.984375 18.0625 35.515625 20.015625 
Q 33.0625 21.96875 24.703125 23.78125 
L 21.578125 24.515625 
Q 13.234375 26.265625 9.515625 29.90625 
Q 5.8125 33.546875 5.8125 39.890625 
Q 5.8125 47.609375 11.28125 51.796875 
Q 16.75 56 26.8125 56 
Q 31.78125 56 36.171875 55.265625 
Q 40.578125 54.546875 44.28125 53.078125 
z
" id="DejaVuSans-73"/>
     </defs>
     <g transform="translate(317.595637 28.418565)scale(0.1 -0.1)">
      <use xlink:href="#DejaVuSans-30"/>
      <use x="63.623047" xlink:href="#DejaVuSans-20"/>
      <use x="95.410156" xlink:href="#DejaVuSans-6f"/>
      <use x="156.591797" xlink:href="#DejaVuSans-70"/>
      <use x="220.068359" xlink:href="#DejaVuSans-70"/>
      <use x="283.544922" xlink:href="#DejaVuSans-6f"/>
      <use x="344.726562" xlink:href="#DejaVuSans-6e"/>
      <use x="408.105469" xlink:href="#DejaVuSans-65"/>
      <use x="469.628906" xlink:href="#DejaVuSans-6e"/>
      <use x="533.007812" xlink:href="#DejaVuSans-74"/>
      <use x="572.216797" xlink:href="#DejaVuSans-73"/>
     </g>
    </g>
    <g id="line2d_23">
     <path d="M 289.595637 39.59669 
L 309.595637 39.59669 
" style="fill:none;stroke:#ff7f0e;stroke-linecap:square;stroke-width:1.5;"/>
    </g>
    <g id="line2d_24"/>
    <g id="text_12">
     <!-- 1 opponents -->
     <g transform="translate(317.595637 43.09669)scale(0.1 -0.1)">
      <use xlink:href="#DejaVuSans-31"/>
      <use x="63.623047" xlink:href="#DejaVuSans-20"/>
      <use x="95.410156" xlink:href="#DejaVuSans-6f"/>
      <use x="156.591797" xlink:href="#DejaVuSans-70"/>
      <use x="220.068359" xlink:href="#DejaVuSans-70"/>
      <use x="283.544922" xlink:href="#DejaVuSans-6f"/>
      <use x="344.726562" xlink:href="#DejaVuSans-6e"/>
      <use x="408.105469" xlink:href="#DejaVuSans-65"/>
      <use x="469.628906" xlink:href="#DejaVuSans-6e"/>
      <use x="533.007812" xlink:href="#DejaVuSans-74"/>
      <use x="572.216797" xlink:href="#DejaVuSans-73"/>
     </g>
    </g>
    <g id="line2d_25">
     <path d="M 289.595637 54.274815 
L 309.595637 54.274815 
" style="fill:none;stroke:#2ca02c;stroke-linecap:square;stroke-width:1.5;"/>
    </g>
    <g id="line2d_26"/>
    <g id="text_13">
     <!-- 2 opponents -->
     <g transform="translate(317.595637 57.774815)scale(0.1 -0.1)">
      <use xlink:href="#DejaVuSans-32"/>
      <use x="63.623047" xlink:href="#DejaVuSans-20"/>
      <use x="95.410156" xlink:href="#DejaVuSans-6f"/>
      <use x="156.591797" xlink:href="#DejaVuSans-70"/>
      <use x="220.068359" xlink:href="#DejaVuSans-70"/>
      <use x="283.544922" xlink:href="#DejaVuSans-6f"/>
      <use x="344.726562" xlink:href="#DejaVuSans-6e"/>
      <use x="408.105469" xlink:href="#DejaVuSans-65"/>
      <use x="469.628906" xlink:href="#DejaVuSans-6e"/>
      <use x="533.007812" xlink:href="#DejaVuSans-74"/>
      <use x="572.216797" xlink:href="#DejaVuSans-73"/>
     </g>
    </g>
    <g id="line2d_27">
     <path d="M 289.595637 68.95294 
L 309.595637 68.95294 
" style="fill:none;stroke:#d62728;stroke-linecap:square;stroke-width:1.5;"/>
    </g>
    <g id="line2d_28"/>
    <g id="text_14">
     <!-- 3 opponents -->
     <defs>
      <path d="M 40.578125 39.3125 
Q 47.65625 37.796875 51.625 33 
Q 55.609375 28.21875 55.609375 21.1875 
Q 55.609375 10.40625 48.1875 4.484375 
Q 40.765625 -1.421875 27.09375 -1.421875 
Q 22.515625 -1.421875 17.65625 -0.515625 
Q 12.796875 0.390625 7.625 2.203125 
L 7.625 11.71875 
Q 11.71875 9.328125 16.59375 8.109375 
Q 21.484375 6.890625 26.8125 6.890625 
Q 36.078125 6.890625 40.9375 10.546875 
Q 45.796875 14.203125 45.796875 21.1875 
Q 45.796875 27.640625 41.28125 31.265625 
Q 36.765625 34.90625 28.71875 34.90625 
L 20.21875 34.90625 
L 20.21875 43.015625 
L 29.109375 43.015625 
Q 36.375 43.015625 40.234375 45.921875 
Q 44.09375 48.828125 44.09375 54.296875 
Q 44.09375 59.90625 40.109375 62.90625 
Q 36.140625 65.921875 28.71875 65.921875 
Q 24.65625 65.921875 20.015625 65.03125 
Q 15.375 64.15625 9.8125 62.3125 
L 9.8125 71.09375 
Q 15.4375 72.65625 20.34375 73.4375 
Q 25.25 74.21875 29.59375 74.21875 
Q 40.828125 74.21875 47.359375 69.109375 
Q 53.90625 64.015625 53.90625 55.328125 
Q 53.90625 49.265625 50.4375 45.09375 
Q 46.96875 40.921875 40.578125 39.3125 
z
" id="DejaVuSans-33"/>
     </defs>
     <g transform="translate(317.595637 72.45294)scale(0.1 -0.1)">
      <use xlink:href="#DejaVuSans-33"/>
      <use x="63.623047" xlink:href="#DejaVuSans-20"/>
      <use x="95.410156" xlink:href="#DejaVuSans-6f"/>
      <use x="156.591797" xlink:href="#DejaVuSans-70"/>
      <use x="220.068359" xlink:href="#DejaVuSans-70"/>
      <use x="283.544922" xlink:href="#DejaVuSans-6f"/>
      <use x="344.726562" xlink:href="#DejaVuSans-6e"/>
      <use x="408.105469" xlink:href="#DejaVuSans-65"/>
      <use x="469.628906" xlink:href="#DejaVuSans-6e"/>
      <use x="533.007812" xlink:href="#DejaVuSans-74"/>
      <use x="572.216797" xlink:href="#DejaVuSans-73"/>
     </g>
    </g>
    <g id="line2d_29">
     <path d="M 289.595637 83.631065 
L 309.595637 83.631065 
" style="fill:none;stroke:#9467bd;stroke-linecap:square;stroke-width:1.5;"/>
    </g>
    <g id="line2d_30"/>
    <g id="text_15">
     <!-- 5 opponents -->
     <defs>
      <path d="M 10.796875 72.90625 
L 49.515625 72.90625 
L 49.515625 64.59375 
L 19.828125 64.59375 
L 19.828125 46.734375 
Q 21.96875 47.46875 24.109375 47.828125 
Q 26.265625 48.1875 28.421875 48.1875 
Q 40.625 48.1875 47.75 41.5 
Q 54.890625 34.8125 54.890625 23.390625 
Q 54.890625 11.625 47.5625 5.09375 
Q 40.234375 -1.421875 26.90625 -1.421875 
Q 22.3125 -1.421875 17.546875 -0.640625 
Q 12.796875 0.140625 7.71875 1.703125 
L 7.71875 11.625 
Q 12.109375 9.234375 16.796875 8.0625 
Q 21.484375 6.890625 26.703125 6.890625 
Q 35.15625 6.890625 40.078125 11.328125 
Q 45.015625 15.765625 45.015625 23.390625 
Q 45.015625 31 40.078125 35.4375 
Q 35.15625 39.890625 26.703125 39.890625 
Q 22.75 39.890625 18.8125 39.015625 
Q 14.890625 38.140625 10.796875 36.28125 
z
" id="DejaVuSans-35"/>
     </defs>
     <g transform="translate(317.595637 87.131065)scale(0.1 -0.1)">
      <use xlink:href="#DejaVuSans-35"/>
      <use x="63.623047" xlink:href="#DejaVuSans-20"/>
      <use x="95.410156" xlink:href="#DejaVuSans-6f"/>
      <use x="156.591797" xlink:href="#DejaVuSans-70"/>
      <use x="220.068359" xlink:href="#DejaVuSans-70"/>
      <use x="283.544922" xlink:href="#DejaVuSans-6f"/>
      <use x="344.726562" xlink:href="#DejaVuSans-6e"/>
      <use x="408.105469" xlink:href="#DejaVuSans-65"/>
      <use x="469.628906" xlink:href="#DejaVuSans-6e"/>
      <use x="533.007812" xlink:href="#DejaVuSans-74"/>
      <use x="572.216797" xlink:href="#DejaVuSans-73"/>
     </g>
    </g>
    <g id="line2d_31">
     <path d="M 289.595637 98.30919 
L 309.595637 98.30919 
" style="fill:none;stroke:#8c564b;stroke-linecap:square;stroke-width:1.5;"/>
    </g>
    <g id="line2d_32"/>
    <g id="text_16">
     <!-- 10 opponents -->
     <g transform="translate(317.595637 101.80919)scale(0.1 -0.1)">
      <use xlink:href="#DejaVuSans-31"/>
      <use x="63.623047" xlink:href="#DejaVuSans-30"/>
      <use x="127.246094" xlink:href="#DejaVuSans-20"/>
      <use x="159.033203" xlink:href="#DejaVuSans-6f"/>
      <use x="220.214844" xlink:href="#DejaVuSans-70"/>
      <use x="283.691406" xlink:href="#DejaVuSans-70"/>
      <use x="347.167969" xlink:href="#DejaVuSans-6f"/>
      <use x="408.349609" xlink:href="#DejaVuSans-6e"/>
      <use x="471.728516" xlink:href="#DejaVuSans-65"/>
      <use x="533.251953" xlink:href="#DejaVuSans-6e"/>
      <use x="596.630859" xlink:href="#DejaVuSans-74"/>
      <use x="635.839844" xlink:href="#DejaVuSans-73"/>
     </g>
    </g>
    <g id="line2d_33">
     <path d="M 289.595637 112.987315 
L 309.595637 112.987315 
" style="fill:none;stroke:#e377c2;stroke-linecap:square;stroke-width:1.5;"/>
    </g>
    <g id="line2d_34"/>
    <g id="text_17">
     <!-- 20 opponents -->
     <g transform="translate(317.595637 116.487315)scale(0.1 -0.1)">
      <use xlink:href="#DejaVuSans-32"/>
      <use x="63.623047" xlink:href="#DejaVuSans-30"/>
      <use x="127.246094" xlink:href="#DejaVuSans-20"/>
      <use x="159.033203" xlink:href="#DejaVuSans-6f"/>
      <use x="220.214844" xlink:href="#DejaVuSans-70"/>
      <use x="283.691406" xlink:href="#DejaVuSans-70"/>
      <use x="347.167969" xlink:href="#DejaVuSans-6f"/>
      <use x="408.349609" xlink:href="#DejaVuSans-6e"/>
      <use x="471.728516" xlink:href="#DejaVuSans-65"/>
      <use x="533.251953" xlink:href="#DejaVuSans-6e"/>
      <use x="596.630859" xlink:href="#DejaVuSans-74"/>
      <use x="635.839844" xlink:href="#DejaVuSans-73"/>
     </g>
    </g>
    <g id="line2d_35">
     <path d="M 289.595637 127.66544 
L 309.595637 127.66544 
" style="fill:none;stroke:#7f7f7f;stroke-linecap:square;stroke-width:1.5;"/>
    </g>
    <g id="line2d_36"/>
    <g id="text_18">
     <!-- 50 opponents -->
     <g transform="translate(317.595637 131.16544)scale(0.1 -0.1)">
      <use xlink:href="#DejaVuSans-35"/>
      <use x="63.623047" xlink:href="#DejaVuSans-30"/>
      <use x="127.246094" xlink:href="#DejaVuSans-20"/>
      <use x="159.033203" xlink:href="#DejaVuSans-6f"/>
      <use x="220.214844" xlink:href="#DejaVuSans-70"/>
      <use x="283.691406" xlink:href="#DejaVuSans-70"/>
      <use x="347.167969" xlink:href="#DejaVuSans-6f"/>
      <use x="408.349609" xlink:href="#DejaVuSans-6e"/>
      <use x="471.728516" xlink:href="#DejaVuSans-65"/>
      <use x="533.251953" xlink:href="#DejaVuSans-6e"/>
      <use x="596.630859" xlink:href="#DejaVuSans-74"/>
      <use x="635.839844" xlink:href="#DejaVuSans-73"/>
     </g>
    </g>
    <g id="line2d_37">
     <path d="M 289.595637 142.343565 
L 309.595637 142.343565 
" style="fill:none;stroke:#bcbd22;stroke-linecap:square;stroke-width:1.5;"/>
    </g>
    <g id="line2d_38"/>
    <g id="text_19">
     <!-- 100 opponents -->
     <g transform="translate(317.595637 145.843565)scale(0.1 -0.1)">
      <use xlink:href="#DejaVuSans-31"/>
      <use x="63.623047" xlink:href="#DejaVuSans-30"/>
      <use x="127.246094" xlink:href="#DejaVuSans-30"/>
      <use x="190.869141" xlink:href="#DejaVuSans-20"/>
      <use x="222.65625" xlink:href="#DejaVuSans-6f"/>
      <use x="283.837891" xlink:href="#DejaVuSans-70"/>
      <use x="347.314453" xlink:href="#DejaVuSans-70"/>
      <use x="410.791016" xlink:href="#DejaVuSans-6f"/>
      <use x="471.972656" xlink:href="#DejaVuSans-6e"/>
      <use x="535.351562" xlink:href="#DejaVuSans-65"/>
      <use x="596.875" xlink:href="#DejaVuSans-6e"/>
      <use x="660.253906" xlink:href="#DejaVuSans-74"/>
      <use x="699.462891" xlink:href="#DejaVuSans-73"/>
     </g>
    </g>
    <g id="line2d_39">
     <path d="M 289.595637 157.02169 
L 309.595637 157.02169 
" style="fill:none;stroke:#17becf;stroke-linecap:square;stroke-width:1.5;"/>
    </g>
    <g id="line2d_40"/>
    <g id="text_20">
     <!-- 1000 opponents -->
     <g transform="translate(317.595637 160.52169)scale(0.1 -0.1)">
      <use xlink:href="#DejaVuSans-31"/>
      <use x="63.623047" xlink:href="#DejaVuSans-30"/>
      <use x="127.246094" xlink:href="#DejaVuSans-30"/>
      <use x="190.869141" xlink:href="#DejaVuSans-30"/>
      <use x="254.492188" xlink:href="#DejaVuSans-20"/>
      <use x="286.279297" xlink:href="#DejaVuSans-6f"/>
      <use x="347.460938" xlink:href="#DejaVuSans-70"/>
      <use x="410.9375" xlink:href="#DejaVuSans-70"/>
      <use x="474.414062" xlink:href="#DejaVuSans-6f"/>
      <use x="535.595703" xlink:href="#DejaVuSans-6e"/>
      <use x="598.974609" xlink:href="#DejaVuSans-65"/>
      <use x="660.498047" xlink:href="#DejaVuSans-6e"/>
      <use x="723.876953" xlink:href="#DejaVuSans-74"/>
      <use x="763.085938" xlink:href="#DejaVuSans-73"/>
     </g>
    </g>
   </g>
  </g>
 </g>
 <defs>
  <clipPath id="pec8ce44363">
   <rect height="155.428672" width="243.240256" x="32.490576" y="11.820128"/>
  </clipPath>
 </defs>
</svg>
