<?xml version="1.0" encoding="utf-8" standalone="no"?>
<!DOCTYPE svg PUBLIC "-//W3C//DTD SVG 1.1//EN"
  "http://www.w3.org/Graphics/SVG/1.1/DTD/svg11.dtd">
<!-- Created with matplotlib (http://matplotlib.org/) -->
<svg height="187.92pt" version="1.1" viewBox="0 0 411.84 187.92" width="411.84pt" xmlns="http://www.w3.org/2000/svg" xmlns:xlink="http://www.w3.org/1999/xlink">
 <defs>
  <style type="text/css">
*{stroke-linecap:butt;stroke-linejoin:round;}
  </style>
 </defs>
 <g id="figure_1">
  <g id="patch_1">
   <path d="M 0 187.92 
L 411.84 187.92 
L 411.84 0 
L 0 0 
z
" style="fill:#ffffff;"/>
  </g>
  <g id="axes_1">
   <g id="patch_2">
    <path d="M 45.223369 164.480085 
L 272.657399 164.480085 
L 272.657399 14.224222 
L 45.223369 14.224222 
z
" style="fill:#ffffff;"/>
   </g>
   <g id="matplotlib.axis_1">
    <g id="xtick_1">
     <g id="line2d_1">
      <defs>
       <path d="M 0 0 
L 0 3.5 
" id="mb451a44742" style="stroke:#000000;stroke-width:0.8;"/>
      </defs>
      <g>
       <use style="stroke:#000000;stroke-width:0.8;" x="52.831388" xlink:href="#mb451a44742" y="164.480085"/>
      </g>
     </g>
     <g id="text_1">
      <!-- 0.0 -->
      <defs>
       <path d="M 31.78125 66.40625 
Q 24.171875 66.40625 20.328125 58.90625 
Q 16.5 51.421875 16.5 36.375 
Q 16.5 21.390625 20.328125 13.890625 
Q 24.171875 6.390625 31.78125 6.390625 
Q 39.453125 6.390625 43.28125 13.890625 
Q 47.125 21.390625 47.125 36.375 
Q 47.125 51.421875 43.28125 58.90625 
Q 39.453125 66.40625 31.78125 66.40625 
z
M 31.78125 74.21875 
Q 44.046875 74.21875 50.515625 64.515625 
Q 56.984375 54.828125 56.984375 36.375 
Q 56.984375 17.96875 50.515625 8.265625 
Q 44.046875 -1.421875 31.78125 -1.421875 
Q 19.53125 -1.421875 13.0625 8.265625 
Q 6.59375 17.96875 6.59375 36.375 
Q 6.59375 54.828125 13.0625 64.515625 
Q 19.53125 74.21875 31.78125 74.21875 
z
" id="DejaVuSans-30"/>
       <path d="M 10.6875 12.40625 
L 21 12.40625 
L 21 0 
L 10.6875 0 
z
" id="DejaVuSans-2e"/>
      </defs>
      <g transform="translate(44.879826 179.078523)scale(0.1 -0.1)">
       <use xlink:href="#DejaVuSans-30"/>
       <use x="63.623047" xlink:href="#DejaVuSans-2e"/>
       <use x="95.410156" xlink:href="#DejaVuSans-30"/>
      </g>
     </g>
    </g>
    <g id="xtick_2">
     <g id="line2d_2">
      <g>
       <use style="stroke:#000000;stroke-width:0.8;" x="94.18303" xlink:href="#mb451a44742" y="164.480085"/>
      </g>
     </g>
     <g id="text_2">
      <!-- 0.2 -->
      <defs>
       <path d="M 19.1875 8.296875 
L 53.609375 8.296875 
L 53.609375 0 
L 7.328125 0 
L 7.328125 8.296875 
Q 12.9375 14.109375 22.625 23.890625 
Q 32.328125 33.6875 34.8125 36.53125 
Q 39.546875 41.84375 41.421875 45.53125 
Q 43.3125 49.21875 43.3125 52.78125 
Q 43.3125 58.59375 39.234375 62.25 
Q 35.15625 65.921875 28.609375 65.921875 
Q 23.96875 65.921875 18.8125 64.3125 
Q 13.671875 62.703125 7.8125 59.421875 
L 7.8125 69.390625 
Q 13.765625 71.78125 18.9375 73 
Q 24.125 74.21875 28.421875 74.21875 
Q 39.75 74.21875 46.484375 68.546875 
Q 53.21875 62.890625 53.21875 53.421875 
Q 53.21875 48.921875 51.53125 44.890625 
Q 49.859375 40.875 45.40625 35.40625 
Q 44.1875 33.984375 37.640625 27.21875 
Q 31.109375 20.453125 19.1875 8.296875 
z
" id="DejaVuSans-32"/>
      </defs>
      <g transform="translate(86.231468 179.078523)scale(0.1 -0.1)">
       <use xlink:href="#DejaVuSans-30"/>
       <use x="63.623047" xlink:href="#DejaVuSans-2e"/>
       <use x="95.410156" xlink:href="#DejaVuSans-32"/>
      </g>
     </g>
    </g>
    <g id="xtick_3">
     <g id="line2d_3">
      <g>
       <use style="stroke:#000000;stroke-width:0.8;" x="135.534672" xlink:href="#mb451a44742" y="164.480085"/>
      </g>
     </g>
     <g id="text_3">
      <!-- 0.4 -->
      <defs>
       <path d="M 37.796875 64.3125 
L 12.890625 25.390625 
L 37.796875 25.390625 
z
M 35.203125 72.90625 
L 47.609375 72.90625 
L 47.609375 25.390625 
L 58.015625 25.390625 
L 58.015625 17.1875 
L 47.609375 17.1875 
L 47.609375 0 
L 37.796875 0 
L 37.796875 17.1875 
L 4.890625 17.1875 
L 4.890625 26.703125 
z
" id="DejaVuSans-34"/>
      </defs>
      <g transform="translate(127.58311 179.078523)scale(0.1 -0.1)">
       <use xlink:href="#DejaVuSans-30"/>
       <use x="63.623047" xlink:href="#DejaVuSans-2e"/>
       <use x="95.410156" xlink:href="#DejaVuSans-34"/>
      </g>
     </g>
    </g>
    <g id="xtick_4">
     <g id="line2d_4">
      <g>
       <use style="stroke:#000000;stroke-width:0.8;" x="176.886314" xlink:href="#mb451a44742" y="164.480085"/>
      </g>
     </g>
     <g id="text_4">
      <!-- 0.6 -->
      <defs>
       <path d="M 33.015625 40.375 
Q 26.375 40.375 22.484375 35.828125 
Q 18.609375 31.296875 18.609375 23.390625 
Q 18.609375 15.53125 22.484375 10.953125 
Q 26.375 6.390625 33.015625 6.390625 
Q 39.65625 6.390625 43.53125 10.953125 
Q 47.40625 15.53125 47.40625 23.390625 
Q 47.40625 31.296875 43.53125 35.828125 
Q 39.65625 40.375 33.015625 40.375 
z
M 52.59375 71.296875 
L 52.59375 62.3125 
Q 48.875 64.0625 45.09375 64.984375 
Q 41.3125 65.921875 37.59375 65.921875 
Q 27.828125 65.921875 22.671875 59.328125 
Q 17.53125 52.734375 16.796875 39.40625 
Q 19.671875 43.65625 24.015625 45.921875 
Q 28.375 48.1875 33.59375 48.1875 
Q 44.578125 48.1875 50.953125 41.515625 
Q 57.328125 34.859375 57.328125 23.390625 
Q 57.328125 12.15625 50.6875 5.359375 
Q 44.046875 -1.421875 33.015625 -1.421875 
Q 20.359375 -1.421875 13.671875 8.265625 
Q 6.984375 17.96875 6.984375 36.375 
Q 6.984375 53.65625 15.1875 63.9375 
Q 23.390625 74.21875 37.203125 74.21875 
Q 40.921875 74.21875 44.703125 73.484375 
Q 48.484375 72.75 52.59375 71.296875 
z
" id="DejaVuSans-36"/>
      </defs>
      <g transform="translate(168.934751 179.078523)scale(0.1 -0.1)">
       <use xlink:href="#DejaVuSans-30"/>
       <use x="63.623047" xlink:href="#DejaVuSans-2e"/>
       <use x="95.410156" xlink:href="#DejaVuSans-36"/>
      </g>
     </g>
    </g>
    <g id="xtick_5">
     <g id="line2d_5">
      <g>
       <use style="stroke:#000000;stroke-width:0.8;" x="218.237956" xlink:href="#mb451a44742" y="164.480085"/>
      </g>
     </g>
     <g id="text_5">
      <!-- 0.8 -->
      <defs>
       <path d="M 31.78125 34.625 
Q 24.75 34.625 20.71875 30.859375 
Q 16.703125 27.09375 16.703125 20.515625 
Q 16.703125 13.921875 20.71875 10.15625 
Q 24.75 6.390625 31.78125 6.390625 
Q 38.8125 6.390625 42.859375 10.171875 
Q 46.921875 13.96875 46.921875 20.515625 
Q 46.921875 27.09375 42.890625 30.859375 
Q 38.875 34.625 31.78125 34.625 
z
M 21.921875 38.8125 
Q 15.578125 40.375 12.03125 44.71875 
Q 8.5 49.078125 8.5 55.328125 
Q 8.5 64.0625 14.71875 69.140625 
Q 20.953125 74.21875 31.78125 74.21875 
Q 42.671875 74.21875 48.875 69.140625 
Q 55.078125 64.0625 55.078125 55.328125 
Q 55.078125 49.078125 51.53125 44.71875 
Q 48 40.375 41.703125 38.8125 
Q 48.828125 37.15625 52.796875 32.3125 
Q 56.78125 27.484375 56.78125 20.515625 
Q 56.78125 9.90625 50.3125 4.234375 
Q 43.84375 -1.421875 31.78125 -1.421875 
Q 19.734375 -1.421875 13.25 4.234375 
Q 6.78125 9.90625 6.78125 20.515625 
Q 6.78125 27.484375 10.78125 32.3125 
Q 14.796875 37.15625 21.921875 38.8125 
z
M 18.3125 54.390625 
Q 18.3125 48.734375 21.84375 45.5625 
Q 25.390625 42.390625 31.78125 42.390625 
Q 38.140625 42.390625 41.71875 45.5625 
Q 45.3125 48.734375 45.3125 54.390625 
Q 45.3125 60.0625 41.71875 63.234375 
Q 38.140625 66.40625 31.78125 66.40625 
Q 25.390625 66.40625 21.84375 63.234375 
Q 18.3125 60.0625 18.3125 54.390625 
z
" id="DejaVuSans-38"/>
      </defs>
      <g transform="translate(210.286393 179.078523)scale(0.1 -0.1)">
       <use xlink:href="#DejaVuSans-30"/>
       <use x="63.623047" xlink:href="#DejaVuSans-2e"/>
       <use x="95.410156" xlink:href="#DejaVuSans-38"/>
      </g>
     </g>
    </g>
    <g id="xtick_6">
     <g id="line2d_6">
      <g>
       <use style="stroke:#000000;stroke-width:0.8;" x="259.589597" xlink:href="#mb451a44742" y="164.480085"/>
      </g>
     </g>
     <g id="text_6">
      <!-- 1.0 -->
      <defs>
       <path d="M 12.40625 8.296875 
L 28.515625 8.296875 
L 28.515625 63.921875 
L 10.984375 60.40625 
L 10.984375 69.390625 
L 28.421875 72.90625 
L 38.28125 72.90625 
L 38.28125 8.296875 
L 54.390625 8.296875 
L 54.390625 0 
L 12.40625 0 
z
" id="DejaVuSans-31"/>
      </defs>
      <g transform="translate(251.638035 179.078523)scale(0.1 -0.1)">
       <use xlink:href="#DejaVuSans-31"/>
       <use x="63.623047" xlink:href="#DejaVuSans-2e"/>
       <use x="95.410156" xlink:href="#DejaVuSans-30"/>
      </g>
     </g>
    </g>
   </g>
   <g id="matplotlib.axis_2">
    <g id="ytick_1">
     <g id="line2d_7">
      <defs>
       <path d="M 0 0 
L -3.5 0 
" id="ma048a27ef9" style="stroke:#000000;stroke-width:0.8;"/>
      </defs>
      <g>
       <use style="stroke:#000000;stroke-width:0.8;" x="45.223369" xlink:href="#ma048a27ef9" y="155.474186"/>
      </g>
     </g>
     <g id="text_7">
      <!-- 0.0 -->
      <g transform="translate(22.320244 159.273405)scale(0.1 -0.1)">
       <use xlink:href="#DejaVuSans-30"/>
       <use x="63.623047" xlink:href="#DejaVuSans-2e"/>
       <use x="95.410156" xlink:href="#DejaVuSans-30"/>
      </g>
     </g>
    </g>
    <g id="ytick_2">
     <g id="line2d_8">
      <g>
       <use style="stroke:#000000;stroke-width:0.8;" x="45.223369" xlink:href="#ma048a27ef9" y="128.019022"/>
      </g>
     </g>
     <g id="text_8">
      <!-- 0.2 -->
      <g transform="translate(22.320244 131.81824)scale(0.1 -0.1)">
       <use xlink:href="#DejaVuSans-30"/>
       <use x="63.623047" xlink:href="#DejaVuSans-2e"/>
       <use x="95.410156" xlink:href="#DejaVuSans-32"/>
      </g>
     </g>
    </g>
    <g id="ytick_3">
     <g id="line2d_9">
      <g>
       <use style="stroke:#000000;stroke-width:0.8;" x="45.223369" xlink:href="#ma048a27ef9" y="100.563857"/>
      </g>
     </g>
     <g id="text_9">
      <!-- 0.4 -->
      <g transform="translate(22.320244 104.363076)scale(0.1 -0.1)">
       <use xlink:href="#DejaVuSans-30"/>
       <use x="63.623047" xlink:href="#DejaVuSans-2e"/>
       <use x="95.410156" xlink:href="#DejaVuSans-34"/>
      </g>
     </g>
    </g>
    <g id="ytick_4">
     <g id="line2d_10">
      <g>
       <use style="stroke:#000000;stroke-width:0.8;" x="45.223369" xlink:href="#ma048a27ef9" y="73.108692"/>
      </g>
     </g>
     <g id="text_10">
      <!-- 0.6 -->
      <g transform="translate(22.320244 76.907911)scale(0.1 -0.1)">
       <use xlink:href="#DejaVuSans-30"/>
       <use x="63.623047" xlink:href="#DejaVuSans-2e"/>
       <use x="95.410156" xlink:href="#DejaVuSans-36"/>
      </g>
     </g>
    </g>
    <g id="ytick_5">
     <g id="line2d_11">
      <g>
       <use style="stroke:#000000;stroke-width:0.8;" x="45.223369" xlink:href="#ma048a27ef9" y="45.653528"/>
      </g>
     </g>
     <g id="text_11">
      <!-- 0.8 -->
      <g transform="translate(22.320244 49.452747)scale(0.1 -0.1)">
       <use xlink:href="#DejaVuSans-30"/>
       <use x="63.623047" xlink:href="#DejaVuSans-2e"/>
       <use x="95.410156" xlink:href="#DejaVuSans-38"/>
      </g>
     </g>
    </g>
    <g id="ytick_6">
     <g id="line2d_12">
      <g>
       <use style="stroke:#000000;stroke-width:0.8;" x="45.223369" xlink:href="#ma048a27ef9" y="18.198363"/>
      </g>
     </g>
     <g id="text_12">
      <!-- 1.0 -->
      <g transform="translate(22.320244 21.997582)scale(0.1 -0.1)">
       <use xlink:href="#DejaVuSans-31"/>
       <use x="63.623047" xlink:href="#DejaVuSans-2e"/>
       <use x="95.410156" xlink:href="#DejaVuSans-30"/>
      </g>
     </g>
    </g>
   </g>
   <g id="line2d_13">
    <path clip-path="url(#p154cae15b0)" d="M 52.831388 18.198363 
L 259.589597 18.198363 
L 259.589597 18.198363 
" style="fill:none;stroke:#1f77b4;stroke-linecap:square;stroke-width:1.5;"/>
   </g>
   <g id="line2d_14">
    <path clip-path="url(#p154cae15b0)" d="M 52.831388 121.15523 
L 58.626413 115.545634 
L 64.214473 110.442775 
L 69.802533 105.64074 
L 75.183627 101.300875 
L 80.564722 97.239963 
L 85.945816 93.458004 
L 91.119946 90.084571 
L 96.294075 86.969046 
L 101.468204 84.111428 
L 106.642334 81.511718 
L 111.609498 79.258636 
L 116.576662 77.243242 
L 121.543826 75.465536 
L 126.51099 73.925517 
L 131.478155 72.623186 
L 136.445319 71.558543 
L 141.205518 70.761299 
L 145.965717 70.182348 
L 150.725916 69.821689 
L 155.486115 69.679324 
L 160.246314 69.755252 
L 165.006513 70.049473 
L 169.766712 70.561988 
L 174.526911 71.292795 
L 179.28711 72.241895 
L 184.047309 73.409289 
L 189.014473 74.860175 
L 193.981637 76.548748 
L 198.948801 78.475009 
L 203.915966 80.638958 
L 208.88313 83.040595 
L 214.057259 85.79505 
L 219.231388 88.807412 
L 224.405518 92.077682 
L 229.579647 95.605859 
L 234.960742 99.548753 
L 240.341836 103.770599 
L 245.722931 108.271398 
L 251.31099 113.240558 
L 256.89905 118.510541 
L 259.589597 121.15523 
L 259.589597 121.15523 
" style="fill:none;stroke:#ff7f0e;stroke-linecap:square;stroke-width:1.5;"/>
   </g>
   <g id="line2d_15">
    <path clip-path="url(#p154cae15b0)" d="M 52.831388 132.594882 
L 59.247309 128.467258 
L 65.663229 124.604007 
L 72.07915 121.005128 
L 78.288105 117.77406 
L 84.49706 114.790584 
L 90.706015 112.054698 
L 96.914971 109.566405 
L 102.916961 107.396403 
L 108.918951 105.457763 
L 114.920941 103.750482 
L 120.922931 102.274562 
L 126.924921 101.030003 
L 132.926911 100.016804 
L 138.928901 99.234965 
L 144.930891 98.684487 
L 150.725916 98.372522 
L 156.520941 98.276236 
L 162.315966 98.39563 
L 168.11099 98.730704 
L 173.906015 99.281457 
L 179.908005 100.079252 
L 185.909995 101.108407 
L 191.911986 102.368922 
L 197.913976 103.860798 
L 203.915966 105.584034 
L 209.917956 107.538631 
L 215.919946 109.724588 
L 221.921936 112.141906 
L 228.130891 114.886044 
L 234.339846 117.877773 
L 240.548801 121.117094 
L 246.757757 124.604007 
L 253.173677 128.467258 
L 259.589597 132.594882 
L 259.589597 132.594882 
" style="fill:none;stroke:#2ca02c;stroke-linecap:square;stroke-width:1.5;"/>
   </g>
   <g id="line2d_16">
    <path clip-path="url(#p154cae15b0)" d="M 52.831388 138.314708 
L 57.177657 135.562361 
L 61.523926 133.064325 
L 66.07716 130.700584 
L 70.837359 128.48548 
L 75.597558 126.511138 
L 80.564722 124.685839 
L 85.738851 123.016654 
L 91.326911 121.454126 
L 97.121936 120.069485 
L 103.330891 118.821868 
L 109.953777 117.726925 
L 116.990592 116.794899 
L 124.648304 116.013199 
L 132.719946 115.413503 
L 141.412483 114.988627 
L 150.725916 114.756734 
L 160.246314 114.740065 
L 169.766712 114.944895 
L 178.87318 115.36367 
L 187.358752 115.977148 
L 195.223428 116.770749 
L 202.467209 117.726925 
L 209.090095 118.821868 
L 215.29905 120.069485 
L 221.094075 121.454126 
L 226.682135 123.016654 
L 232.063229 124.757383 
L 237.030393 126.59225 
L 241.997558 128.668242 
L 246.757757 130.905272 
L 251.31099 133.291772 
L 255.657259 135.813244 
L 259.589597 138.314708 
L 259.589597 138.314708 
" style="fill:none;stroke:#d62728;stroke-linecap:square;stroke-width:1.5;"/>
   </g>
   <g id="line2d_17">
    <path clip-path="url(#p154cae15b0)" d="M 52.831388 144.034534 
L 56.142831 141.964267 
L 59.661239 140.029636 
L 63.179647 138.343906 
L 66.90502 136.804672 
L 70.837359 135.426348 
L 74.976662 134.218777 
L 79.322931 133.187087 
L 83.876165 132.331664 
L 88.843329 131.622877 
L 94.431388 131.058085 
L 100.640344 130.661483 
L 107.884125 130.429953 
L 116.990592 130.376354 
L 131.271189 130.550342 
L 153.830393 130.804599 
L 168.938851 130.729853 
L 204.329896 130.426229 
L 211.987607 130.671403 
L 218.403528 131.092538 
L 223.991587 131.67394 
L 229.165717 132.435957 
L 233.925916 133.366423 
L 238.272185 134.441765 
L 242.411488 135.696864 
L 246.343826 137.126184 
L 250.069199 138.719403 
L 253.587607 140.461563 
L 257.106015 142.458284 
L 259.589597 144.034534 
L 259.589597 144.034534 
" style="fill:none;stroke:#9467bd;stroke-linecap:square;stroke-width:1.5;"/>
   </g>
   <g id="line2d_18">
    <path clip-path="url(#p154cae15b0)" d="M 52.831388 149.234376 
L 55.314971 147.727044 
L 57.798553 146.47687 
L 60.4891 145.371377 
L 63.386612 144.425914 
L 66.49109 143.647302 
L 70.009498 143.002437 
L 73.941836 142.515872 
L 78.49507 142.182969 
L 84.08313 142.008286 
L 91.533876 142.015793 
L 104.572682 142.293036 
L 127.752782 142.76081 
L 148.035369 142.920899 
L 171.836364 142.885658 
L 191.911986 142.64739 
L 215.29905 142.114985 
L 226.268204 141.989318 
L 232.684125 142.125382 
L 237.651289 142.439137 
L 241.790592 142.91078 
L 245.515966 143.559371 
L 248.827408 144.36697 
L 251.724921 145.295927 
L 254.415468 146.383146 
L 256.89905 147.613563 
L 259.382632 149.09799 
L 259.589597 149.234376 
L 259.589597 149.234376 
" style="fill:none;stroke:#8c564b;stroke-linecap:square;stroke-width:1.5;"/>
   </g>
   <g id="line2d_19">
    <path clip-path="url(#p154cae15b0)" d="M 52.831388 152.205714 
L 54.48711 151.229917 
L 56.349796 150.387948 
L 58.419448 149.703279 
L 60.696065 149.182784 
L 63.386612 148.796137 
L 66.698055 148.549555 
L 71.251289 148.451824 
L 79.115966 148.550106 
L 100.433379 148.866345 
L 125.890095 148.933624 
L 212.194573 148.864872 
L 229.372682 148.630035 
L 242.825418 148.465087 
L 247.171687 148.632953 
L 250.48313 148.978442 
L 253.173677 149.489365 
L 255.450294 150.157735 
L 257.312981 150.921985 
L 259.175667 151.939003 
L 259.589597 152.205714 
L 259.589597 152.205714 
" style="fill:none;stroke:#e377c2;stroke-linecap:square;stroke-width:1.5;"/>
   </g>
   <g id="line2d_20">
    <path clip-path="url(#p154cae15b0)" d="M 52.831388 154.128345 
L 53.866214 153.557175 
L 55.108005 153.113199 
L 56.763727 152.788177 
L 58.833379 152.625301 
L 62.351786 152.604778 
L 83.462234 152.779528 
L 232.684125 152.775215 
L 247.999548 152.638473 
L 253.794573 152.633899 
L 256.071189 152.848182 
L 257.726911 153.2375 
L 258.968702 153.759625 
L 259.589597 154.128345 
L 259.589597 154.128345 
" style="fill:none;stroke:#7f7f7f;stroke-linecap:square;stroke-width:1.5;"/>
   </g>
   <g id="line2d_21">
    <path clip-path="url(#p154cae15b0)" d="M 52.831388 154.794603 
L 53.659249 154.384188 
L 54.694075 154.137311 
L 56.349796 154.02516 
L 60.90303 154.077234 
L 72.700045 154.114775 
L 254.829398 154.025796 
L 257.312981 154.087367 
L 258.554772 154.316427 
L 259.382632 154.667065 
L 259.589597 154.794603 
L 259.589597 154.794603 
" style="fill:none;stroke:#bcbd22;stroke-linecap:square;stroke-width:1.5;"/>
   </g>
   <g id="patch_3">
    <path d="M 45.223369 164.480085 
L 45.223369 14.224222 
" style="fill:none;stroke:#000000;stroke-linecap:square;stroke-linejoin:miter;stroke-width:0.8;"/>
   </g>
   <g id="patch_4">
    <path d="M 272.657399 164.480085 
L 272.657399 14.224222 
" style="fill:none;stroke:#000000;stroke-linecap:square;stroke-linejoin:miter;stroke-width:0.8;"/>
   </g>
   <g id="patch_5">
    <path d="M 45.223369 164.480085 
L 272.657399 164.480085 
" style="fill:none;stroke:#000000;stroke-linecap:square;stroke-linejoin:miter;stroke-width:0.8;"/>
   </g>
   <g id="patch_6">
    <path d="M 45.223369 14.224222 
L 272.657399 14.224222 
" style="fill:none;stroke:#000000;stroke-linecap:square;stroke-linejoin:miter;stroke-width:0.8;"/>
   </g>
   <g id="legend_1">
    <g id="patch_7">
     <path d="M 284.206079 154.327347 
L 391.363892 154.327347 
Q 393.363892 154.327347 393.363892 152.327347 
L 393.363892 21.224222 
Q 393.363892 19.224222 391.363892 19.224222 
L 284.206079 19.224222 
Q 282.206079 19.224222 282.206079 21.224222 
L 282.206079 152.327347 
Q 282.206079 154.327347 284.206079 154.327347 
z
" style="fill:#ffffff;opacity:0.8;stroke:#cccccc;stroke-linejoin:miter;"/>
    </g>
    <g id="line2d_22">
     <path d="M 286.206079 27.322659 
L 306.206079 27.322659 
" style="fill:none;stroke:#1f77b4;stroke-linecap:square;stroke-width:1.5;"/>
    </g>
    <g id="line2d_23"/>
    <g id="text_13">
     <!-- 0 opponents -->
     <defs>
      <path id="DejaVuSans-20"/>
      <path d="M 30.609375 48.390625 
Q 23.390625 48.390625 19.1875 42.75 
Q 14.984375 37.109375 14.984375 27.296875 
Q 14.984375 17.484375 19.15625 11.84375 
Q 23.34375 6.203125 30.609375 6.203125 
Q 37.796875 6.203125 41.984375 11.859375 
Q 46.1875 17.53125 46.1875 27.296875 
Q 46.1875 37.015625 41.984375 42.703125 
Q 37.796875 48.390625 30.609375 48.390625 
z
M 30.609375 56 
Q 42.328125 56 49.015625 48.375 
Q 55.71875 40.765625 55.71875 27.296875 
Q 55.71875 13.875 49.015625 6.21875 
Q 42.328125 -1.421875 30.609375 -1.421875 
Q 18.84375 -1.421875 12.171875 6.21875 
Q 5.515625 13.875 5.515625 27.296875 
Q 5.515625 40.765625 12.171875 48.375 
Q 18.84375 56 30.609375 56 
z
" id="DejaVuSans-6f"/>
      <path d="M 18.109375 8.203125 
L 18.109375 -20.796875 
L 9.078125 -20.796875 
L 9.078125 54.6875 
L 18.109375 54.6875 
L 18.109375 46.390625 
Q 20.953125 51.265625 25.265625 53.625 
Q 29.59375 56 35.59375 56 
Q 45.5625 56 51.78125 48.09375 
Q 58.015625 40.1875 58.015625 27.296875 
Q 58.015625 14.40625 51.78125 6.484375 
Q 45.5625 -1.421875 35.59375 -1.421875 
Q 29.59375 -1.421875 25.265625 0.953125 
Q 20.953125 3.328125 18.109375 8.203125 
z
M 48.6875 27.296875 
Q 48.6875 37.203125 44.609375 42.84375 
Q 40.53125 48.484375 33.40625 48.484375 
Q 26.265625 48.484375 22.1875 42.84375 
Q 18.109375 37.203125 18.109375 27.296875 
Q 18.109375 17.390625 22.1875 11.75 
Q 26.265625 6.109375 33.40625 6.109375 
Q 40.53125 6.109375 44.609375 11.75 
Q 48.6875 17.390625 48.6875 27.296875 
z
" id="DejaVuSans-70"/>
      <path d="M 54.890625 33.015625 
L 54.890625 0 
L 45.90625 0 
L 45.90625 32.71875 
Q 45.90625 40.484375 42.875 44.328125 
Q 39.84375 48.1875 33.796875 48.1875 
Q 26.515625 48.1875 22.3125 43.546875 
Q 18.109375 38.921875 18.109375 30.90625 
L 18.109375 0 
L 9.078125 0 
L 9.078125 54.6875 
L 18.109375 54.6875 
L 18.109375 46.1875 
Q 21.34375 51.125 25.703125 53.5625 
Q 30.078125 56 35.796875 56 
Q 45.21875 56 50.046875 50.171875 
Q 54.890625 44.34375 54.890625 33.015625 
z
" id="DejaVuSans-6e"/>
      <path d="M 56.203125 29.59375 
L 56.203125 25.203125 
L 14.890625 25.203125 
Q 15.484375 15.921875 20.484375 11.0625 
Q 25.484375 6.203125 34.421875 6.203125 
Q 39.59375 6.203125 44.453125 7.46875 
Q 49.3125 8.734375 54.109375 11.28125 
L 54.109375 2.78125 
Q 49.265625 0.734375 44.1875 -0.34375 
Q 39.109375 -1.421875 33.890625 -1.421875 
Q 20.796875 -1.421875 13.15625 6.1875 
Q 5.515625 13.8125 5.515625 26.8125 
Q 5.515625 40.234375 12.765625 48.109375 
Q 20.015625 56 32.328125 56 
Q 43.359375 56 49.78125 48.890625 
Q 56.203125 41.796875 56.203125 29.59375 
z
M 47.21875 32.234375 
Q 47.125 39.59375 43.09375 43.984375 
Q 39.0625 48.390625 32.421875 48.390625 
Q 24.90625 48.390625 20.390625 44.140625 
Q 15.875 39.890625 15.1875 32.171875 
z
" id="DejaVuSans-65"/>
      <path d="M 18.3125 70.21875 
L 18.3125 54.6875 
L 36.8125 54.6875 
L 36.8125 47.703125 
L 18.3125 47.703125 
L 18.3125 18.015625 
Q 18.3125 11.328125 20.140625 9.421875 
Q 21.96875 7.515625 27.59375 7.515625 
L 36.8125 7.515625 
L 36.8125 0 
L 27.59375 0 
Q 17.1875 0 13.234375 3.875 
Q 9.28125 7.765625 9.28125 18.015625 
L 9.28125 47.703125 
L 2.6875 47.703125 
L 2.6875 54.6875 
L 9.28125 54.6875 
L 9.28125 70.21875 
z
" id="DejaVuSans-74"/>
      <path d="M 44.28125 53.078125 
L 44.28125 44.578125 
Q 40.484375 46.53125 36.375 47.5 
Q 32.28125 48.484375 27.875 48.484375 
Q 21.1875 48.484375 17.84375 46.4375 
Q 14.5 44.390625 14.5 40.28125 
Q 14.5 37.15625 16.890625 35.375 
Q 19.28125 33.59375 26.515625 31.984375 
L 29.59375 31.296875 
Q 39.15625 29.25 43.1875 25.515625 
Q 47.21875 21.78125 47.21875 15.09375 
Q 47.21875 7.46875 41.1875 3.015625 
Q 35.15625 -1.421875 24.609375 -1.421875 
Q 20.21875 -1.421875 15.453125 -0.5625 
Q 10.6875 0.296875 5.421875 2 
L 5.421875 11.28125 
Q 10.40625 8.6875 15.234375 7.390625 
Q 20.0625 6.109375 24.8125 6.109375 
Q 31.15625 6.109375 34.5625 8.28125 
Q 37.984375 10.453125 37.984375 14.40625 
Q 37.984375 18.0625 35.515625 20.015625 
Q 33.0625 21.96875 24.703125 23.78125 
L 21.578125 24.515625 
Q 13.234375 26.265625 9.515625 29.90625 
Q 5.8125 33.546875 5.8125 39.890625 
Q 5.8125 47.609375 11.28125 51.796875 
Q 16.75 56 26.8125 56 
Q 31.78125 56 36.171875 55.265625 
Q 40.578125 54.546875 44.28125 53.078125 
z
" id="DejaVuSans-73"/>
     </defs>
     <g transform="translate(314.206079 30.822659)scale(0.1 -0.1)">
      <use xlink:href="#DejaVuSans-30"/>
      <use x="63.623047" xlink:href="#DejaVuSans-20"/>
      <use x="95.410156" xlink:href="#DejaVuSans-6f"/>
      <use x="156.591797" xlink:href="#DejaVuSans-70"/>
      <use x="220.068359" xlink:href="#DejaVuSans-70"/>
      <use x="283.544922" xlink:href="#DejaVuSans-6f"/>
      <use x="344.726562" xlink:href="#DejaVuSans-6e"/>
      <use x="408.105469" xlink:href="#DejaVuSans-65"/>
      <use x="469.628906" xlink:href="#DejaVuSans-6e"/>
      <use x="533.007812" xlink:href="#DejaVuSans-74"/>
      <use x="572.216797" xlink:href="#DejaVuSans-73"/>
     </g>
    </g>
    <g id="line2d_24">
     <path d="M 286.206079 42.000784 
L 306.206079 42.000784 
" style="fill:none;stroke:#ff7f0e;stroke-linecap:square;stroke-width:1.5;"/>
    </g>
    <g id="line2d_25"/>
    <g id="text_14">
     <!-- 1 opponents -->
     <g transform="translate(314.206079 45.500784)scale(0.1 -0.1)">
      <use xlink:href="#DejaVuSans-31"/>
      <use x="63.623047" xlink:href="#DejaVuSans-20"/>
      <use x="95.410156" xlink:href="#DejaVuSans-6f"/>
      <use x="156.591797" xlink:href="#DejaVuSans-70"/>
      <use x="220.068359" xlink:href="#DejaVuSans-70"/>
      <use x="283.544922" xlink:href="#DejaVuSans-6f"/>
      <use x="344.726562" xlink:href="#DejaVuSans-6e"/>
      <use x="408.105469" xlink:href="#DejaVuSans-65"/>
      <use x="469.628906" xlink:href="#DejaVuSans-6e"/>
      <use x="533.007812" xlink:href="#DejaVuSans-74"/>
      <use x="572.216797" xlink:href="#DejaVuSans-73"/>
     </g>
    </g>
    <g id="line2d_26">
     <path d="M 286.206079 56.678909 
L 306.206079 56.678909 
" style="fill:none;stroke:#2ca02c;stroke-linecap:square;stroke-width:1.5;"/>
    </g>
    <g id="line2d_27"/>
    <g id="text_15">
     <!-- 2 opponents -->
     <g transform="translate(314.206079 60.178909)scale(0.1 -0.1)">
      <use xlink:href="#DejaVuSans-32"/>
      <use x="63.623047" xlink:href="#DejaVuSans-20"/>
      <use x="95.410156" xlink:href="#DejaVuSans-6f"/>
      <use x="156.591797" xlink:href="#DejaVuSans-70"/>
      <use x="220.068359" xlink:href="#DejaVuSans-70"/>
      <use x="283.544922" xlink:href="#DejaVuSans-6f"/>
      <use x="344.726562" xlink:href="#DejaVuSans-6e"/>
      <use x="408.105469" xlink:href="#DejaVuSans-65"/>
      <use x="469.628906" xlink:href="#DejaVuSans-6e"/>
      <use x="533.007812" xlink:href="#DejaVuSans-74"/>
      <use x="572.216797" xlink:href="#DejaVuSans-73"/>
     </g>
    </g>
    <g id="line2d_28">
     <path d="M 286.206079 71.357034 
L 306.206079 71.357034 
" style="fill:none;stroke:#d62728;stroke-linecap:square;stroke-width:1.5;"/>
    </g>
    <g id="line2d_29"/>
    <g id="text_16">
     <!-- 3 opponents -->
     <defs>
      <path d="M 40.578125 39.3125 
Q 47.65625 37.796875 51.625 33 
Q 55.609375 28.21875 55.609375 21.1875 
Q 55.609375 10.40625 48.1875 4.484375 
Q 40.765625 -1.421875 27.09375 -1.421875 
Q 22.515625 -1.421875 17.65625 -0.515625 
Q 12.796875 0.390625 7.625 2.203125 
L 7.625 11.71875 
Q 11.71875 9.328125 16.59375 8.109375 
Q 21.484375 6.890625 26.8125 6.890625 
Q 36.078125 6.890625 40.9375 10.546875 
Q 45.796875 14.203125 45.796875 21.1875 
Q 45.796875 27.640625 41.28125 31.265625 
Q 36.765625 34.90625 28.71875 34.90625 
L 20.21875 34.90625 
L 20.21875 43.015625 
L 29.109375 43.015625 
Q 36.375 43.015625 40.234375 45.921875 
Q 44.09375 48.828125 44.09375 54.296875 
Q 44.09375 59.90625 40.109375 62.90625 
Q 36.140625 65.921875 28.71875 65.921875 
Q 24.65625 65.921875 20.015625 65.03125 
Q 15.375 64.15625 9.8125 62.3125 
L 9.8125 71.09375 
Q 15.4375 72.65625 20.34375 73.4375 
Q 25.25 74.21875 29.59375 74.21875 
Q 40.828125 74.21875 47.359375 69.109375 
Q 53.90625 64.015625 53.90625 55.328125 
Q 53.90625 49.265625 50.4375 45.09375 
Q 46.96875 40.921875 40.578125 39.3125 
z
" id="DejaVuSans-33"/>
     </defs>
     <g transform="translate(314.206079 74.857034)scale(0.1 -0.1)">
      <use xlink:href="#DejaVuSans-33"/>
      <use x="63.623047" xlink:href="#DejaVuSans-20"/>
      <use x="95.410156" xlink:href="#DejaVuSans-6f"/>
      <use x="156.591797" xlink:href="#DejaVuSans-70"/>
      <use x="220.068359" xlink:href="#DejaVuSans-70"/>
      <use x="283.544922" xlink:href="#DejaVuSans-6f"/>
      <use x="344.726562" xlink:href="#DejaVuSans-6e"/>
      <use x="408.105469" xlink:href="#DejaVuSans-65"/>
      <use x="469.628906" xlink:href="#DejaVuSans-6e"/>
      <use x="533.007812" xlink:href="#DejaVuSans-74"/>
      <use x="572.216797" xlink:href="#DejaVuSans-73"/>
     </g>
    </g>
    <g id="line2d_30">
     <path d="M 286.206079 86.035159 
L 306.206079 86.035159 
" style="fill:none;stroke:#9467bd;stroke-linecap:square;stroke-width:1.5;"/>
    </g>
    <g id="line2d_31"/>
    <g id="text_17">
     <!-- 5 opponents -->
     <defs>
      <path d="M 10.796875 72.90625 
L 49.515625 72.90625 
L 49.515625 64.59375 
L 19.828125 64.59375 
L 19.828125 46.734375 
Q 21.96875 47.46875 24.109375 47.828125 
Q 26.265625 48.1875 28.421875 48.1875 
Q 40.625 48.1875 47.75 41.5 
Q 54.890625 34.8125 54.890625 23.390625 
Q 54.890625 11.625 47.5625 5.09375 
Q 40.234375 -1.421875 26.90625 -1.421875 
Q 22.3125 -1.421875 17.546875 -0.640625 
Q 12.796875 0.140625 7.71875 1.703125 
L 7.71875 11.625 
Q 12.109375 9.234375 16.796875 8.0625 
Q 21.484375 6.890625 26.703125 6.890625 
Q 35.15625 6.890625 40.078125 11.328125 
Q 45.015625 15.765625 45.015625 23.390625 
Q 45.015625 31 40.078125 35.4375 
Q 35.15625 39.890625 26.703125 39.890625 
Q 22.75 39.890625 18.8125 39.015625 
Q 14.890625 38.140625 10.796875 36.28125 
z
" id="DejaVuSans-35"/>
     </defs>
     <g transform="translate(314.206079 89.535159)scale(0.1 -0.1)">
      <use xlink:href="#DejaVuSans-35"/>
      <use x="63.623047" xlink:href="#DejaVuSans-20"/>
      <use x="95.410156" xlink:href="#DejaVuSans-6f"/>
      <use x="156.591797" xlink:href="#DejaVuSans-70"/>
      <use x="220.068359" xlink:href="#DejaVuSans-70"/>
      <use x="283.544922" xlink:href="#DejaVuSans-6f"/>
      <use x="344.726562" xlink:href="#DejaVuSans-6e"/>
      <use x="408.105469" xlink:href="#DejaVuSans-65"/>
      <use x="469.628906" xlink:href="#DejaVuSans-6e"/>
      <use x="533.007812" xlink:href="#DejaVuSans-74"/>
      <use x="572.216797" xlink:href="#DejaVuSans-73"/>
     </g>
    </g>
    <g id="line2d_32">
     <path d="M 286.206079 100.713284 
L 306.206079 100.713284 
" style="fill:none;stroke:#8c564b;stroke-linecap:square;stroke-width:1.5;"/>
    </g>
    <g id="line2d_33"/>
    <g id="text_18">
     <!-- 10 opponents -->
     <g transform="translate(314.206079 104.213284)scale(0.1 -0.1)">
      <use xlink:href="#DejaVuSans-31"/>
      <use x="63.623047" xlink:href="#DejaVuSans-30"/>
      <use x="127.246094" xlink:href="#DejaVuSans-20"/>
      <use x="159.033203" xlink:href="#DejaVuSans-6f"/>
      <use x="220.214844" xlink:href="#DejaVuSans-70"/>
      <use x="283.691406" xlink:href="#DejaVuSans-70"/>
      <use x="347.167969" xlink:href="#DejaVuSans-6f"/>
      <use x="408.349609" xlink:href="#DejaVuSans-6e"/>
      <use x="471.728516" xlink:href="#DejaVuSans-65"/>
      <use x="533.251953" xlink:href="#DejaVuSans-6e"/>
      <use x="596.630859" xlink:href="#DejaVuSans-74"/>
      <use x="635.839844" xlink:href="#DejaVuSans-73"/>
     </g>
    </g>
    <g id="line2d_34">
     <path d="M 286.206079 115.391409 
L 306.206079 115.391409 
" style="fill:none;stroke:#e377c2;stroke-linecap:square;stroke-width:1.5;"/>
    </g>
    <g id="line2d_35"/>
    <g id="text_19">
     <!-- 20 opponents -->
     <g transform="translate(314.206079 118.891409)scale(0.1 -0.1)">
      <use xlink:href="#DejaVuSans-32"/>
      <use x="63.623047" xlink:href="#DejaVuSans-30"/>
      <use x="127.246094" xlink:href="#DejaVuSans-20"/>
      <use x="159.033203" xlink:href="#DejaVuSans-6f"/>
      <use x="220.214844" xlink:href="#DejaVuSans-70"/>
      <use x="283.691406" xlink:href="#DejaVuSans-70"/>
      <use x="347.167969" xlink:href="#DejaVuSans-6f"/>
      <use x="408.349609" xlink:href="#DejaVuSans-6e"/>
      <use x="471.728516" xlink:href="#DejaVuSans-65"/>
      <use x="533.251953" xlink:href="#DejaVuSans-6e"/>
      <use x="596.630859" xlink:href="#DejaVuSans-74"/>
      <use x="635.839844" xlink:href="#DejaVuSans-73"/>
     </g>
    </g>
    <g id="line2d_36">
     <path d="M 286.206079 130.069534 
L 306.206079 130.069534 
" style="fill:none;stroke:#7f7f7f;stroke-linecap:square;stroke-width:1.5;"/>
    </g>
    <g id="line2d_37"/>
    <g id="text_20">
     <!-- 50 opponents -->
     <g transform="translate(314.206079 133.569534)scale(0.1 -0.1)">
      <use xlink:href="#DejaVuSans-35"/>
      <use x="63.623047" xlink:href="#DejaVuSans-30"/>
      <use x="127.246094" xlink:href="#DejaVuSans-20"/>
      <use x="159.033203" xlink:href="#DejaVuSans-6f"/>
      <use x="220.214844" xlink:href="#DejaVuSans-70"/>
      <use x="283.691406" xlink:href="#DejaVuSans-70"/>
      <use x="347.167969" xlink:href="#DejaVuSans-6f"/>
      <use x="408.349609" xlink:href="#DejaVuSans-6e"/>
      <use x="471.728516" xlink:href="#DejaVuSans-65"/>
      <use x="533.251953" xlink:href="#DejaVuSans-6e"/>
      <use x="596.630859" xlink:href="#DejaVuSans-74"/>
      <use x="635.839844" xlink:href="#DejaVuSans-73"/>
     </g>
    </g>
    <g id="line2d_38">
     <path d="M 286.206079 144.747659 
L 306.206079 144.747659 
" style="fill:none;stroke:#bcbd22;stroke-linecap:square;stroke-width:1.5;"/>
    </g>
    <g id="line2d_39"/>
    <g id="text_21">
     <!-- 100 opponents -->
     <g transform="translate(314.206079 148.247659)scale(0.1 -0.1)">
      <use xlink:href="#DejaVuSans-31"/>
      <use x="63.623047" xlink:href="#DejaVuSans-30"/>
      <use x="127.246094" xlink:href="#DejaVuSans-30"/>
      <use x="190.869141" xlink:href="#DejaVuSans-20"/>
      <use x="222.65625" xlink:href="#DejaVuSans-6f"/>
      <use x="283.837891" xlink:href="#DejaVuSans-70"/>
      <use x="347.314453" xlink:href="#DejaVuSans-70"/>
      <use x="410.791016" xlink:href="#DejaVuSans-6f"/>
      <use x="471.972656" xlink:href="#DejaVuSans-6e"/>
      <use x="535.351562" xlink:href="#DejaVuSans-65"/>
      <use x="596.875" xlink:href="#DejaVuSans-6e"/>
      <use x="660.253906" xlink:href="#DejaVuSans-74"/>
      <use x="699.462891" xlink:href="#DejaVuSans-73"/>
     </g>
    </g>
   </g>
  </g>
 </g>
 <defs>
  <clipPath id="p154cae15b0">
   <rect height="150.255864" width="227.43403" x="45.223369" y="14.224222"/>
  </clipPath>
 </defs>
</svg>
