<?xml version="1.0" encoding="utf-8" standalone="no"?>
<!DOCTYPE svg PUBLIC "-//W3C//DTD SVG 1.1//EN"
  "http://www.w3.org/Graphics/SVG/1.1/DTD/svg11.dtd">
<!-- Created with matplotlib (https://matplotlib.org/) -->
<svg height="312.30825pt" version="1.1" viewBox="0 0 393.262187 312.30825" width="393.262187pt" xmlns="http://www.w3.org/2000/svg" xmlns:xlink="http://www.w3.org/1999/xlink">
 <metadata>
  <rdf:RDF xmlns:cc="http://creativecommons.org/ns#" xmlns:dc="http://purl.org/dc/elements/1.1/" xmlns:rdf="http://www.w3.org/1999/02/22-rdf-syntax-ns#">
   <cc:Work>
    <dc:type rdf:resource="http://purl.org/dc/dcmitype/StillImage"/>
    <dc:date>2021-05-15T17:13:48.615201</dc:date>
    <dc:format>image/svg+xml</dc:format>
    <dc:creator>
     <cc:Agent>
      <dc:title>Matplotlib v3.3.4, https://matplotlib.org/</dc:title>
     </cc:Agent>
    </dc:creator>
   </cc:Work>
  </rdf:RDF>
 </metadata>
 <defs>
  <style type="text/css">*{stroke-linecap:butt;stroke-linejoin:round;}</style>
 </defs>
 <g id="figure_1">
  <g id="patch_1">
   <path d="M 0 312.30825 
L 393.262187 312.30825 
L 393.262187 0 
L 0 0 
z
" style="fill:#ffffff;"/>
  </g>
  <g id="axes_1">
   <g id="patch_2">
    <path d="M 28.942188 143.278125 
L 191.26946 143.278125 
L 191.26946 22.318125 
L 28.942188 22.318125 
z
" style="fill:#ffffff;"/>
   </g>
   <g id="matplotlib.axis_1">
    <g id="xtick_1">
     <g id="line2d_1">
      <defs>
       <path d="M 0 0 
L 0 3.5 
" id="me8f6d85d64" style="stroke:#000000;stroke-width:0.8;"/>
      </defs>
      <g>
       <use style="stroke:#000000;stroke-width:0.8;" x="49.233097" xlink:href="#me8f6d85d64" y="143.278125"/>
      </g>
     </g>
    </g>
    <g id="xtick_2">
     <g id="line2d_2">
      <g>
       <use style="stroke:#000000;stroke-width:0.8;" x="89.814915" xlink:href="#me8f6d85d64" y="143.278125"/>
      </g>
     </g>
    </g>
    <g id="xtick_3">
     <g id="line2d_3">
      <g>
       <use style="stroke:#000000;stroke-width:0.8;" x="130.396733" xlink:href="#me8f6d85d64" y="143.278125"/>
      </g>
     </g>
    </g>
    <g id="xtick_4">
     <g id="line2d_4">
      <g>
       <use style="stroke:#000000;stroke-width:0.8;" x="170.978551" xlink:href="#me8f6d85d64" y="143.278125"/>
      </g>
     </g>
    </g>
   </g>
   <g id="matplotlib.axis_2">
    <g id="ytick_1">
     <g id="line2d_5">
      <defs>
       <path d="M 0 0 
L -3.5 0 
" id="mabc3911603" style="stroke:#000000;stroke-width:0.8;"/>
      </defs>
      <g>
       <use style="stroke:#000000;stroke-width:0.8;" x="28.942188" xlink:href="#mabc3911603" y="118.971769"/>
      </g>
     </g>
     <g id="text_1">
      <!-- −1 -->
      <g transform="translate(7.2 122.770987)scale(0.1 -0.1)">
       <defs>
        <path d="M 10.59375 35.5 
L 73.1875 35.5 
L 73.1875 27.203125 
L 10.59375 27.203125 
z
" id="DejaVuSans-8722"/>
        <path d="M 12.40625 8.296875 
L 28.515625 8.296875 
L 28.515625 63.921875 
L 10.984375 60.40625 
L 10.984375 69.390625 
L 28.421875 72.90625 
L 38.28125 72.90625 
L 38.28125 8.296875 
L 54.390625 8.296875 
L 54.390625 0 
L 12.40625 0 
z
" id="DejaVuSans-49"/>
       </defs>
       <use xlink:href="#DejaVuSans-8722"/>
       <use x="83.789062" xlink:href="#DejaVuSans-49"/>
      </g>
     </g>
    </g>
    <g id="ytick_2">
     <g id="line2d_6">
      <g>
       <use style="stroke:#000000;stroke-width:0.8;" x="28.942188" xlink:href="#mabc3911603" y="82.923862"/>
      </g>
     </g>
     <g id="text_2">
      <!-- 0 -->
      <g transform="translate(15.579688 86.723081)scale(0.1 -0.1)">
       <defs>
        <path d="M 31.78125 66.40625 
Q 24.171875 66.40625 20.328125 58.90625 
Q 16.5 51.421875 16.5 36.375 
Q 16.5 21.390625 20.328125 13.890625 
Q 24.171875 6.390625 31.78125 6.390625 
Q 39.453125 6.390625 43.28125 13.890625 
Q 47.125 21.390625 47.125 36.375 
Q 47.125 51.421875 43.28125 58.90625 
Q 39.453125 66.40625 31.78125 66.40625 
z
M 31.78125 74.21875 
Q 44.046875 74.21875 50.515625 64.515625 
Q 56.984375 54.828125 56.984375 36.375 
Q 56.984375 17.96875 50.515625 8.265625 
Q 44.046875 -1.421875 31.78125 -1.421875 
Q 19.53125 -1.421875 13.0625 8.265625 
Q 6.59375 17.96875 6.59375 36.375 
Q 6.59375 54.828125 13.0625 64.515625 
Q 19.53125 74.21875 31.78125 74.21875 
z
" id="DejaVuSans-48"/>
       </defs>
       <use xlink:href="#DejaVuSans-48"/>
      </g>
     </g>
    </g>
    <g id="ytick_3">
     <g id="line2d_7">
      <g>
       <use style="stroke:#000000;stroke-width:0.8;" x="28.942188" xlink:href="#mabc3911603" y="46.875956"/>
      </g>
     </g>
     <g id="text_3">
      <!-- 1 -->
      <g transform="translate(15.579688 50.675175)scale(0.1 -0.1)">
       <use xlink:href="#DejaVuSans-49"/>
      </g>
     </g>
    </g>
   </g>
   <g id="line2d_8">
    <path clip-path="url(#pcec36c2960)" d="M 28.536369 130.453789 
L 28.942187 120.959124 
L 29.753824 90.720952 
L 30.159642 91.596897 
L 30.56546 107.972507 
L 30.971278 117.651214 
L 31.377097 129.997546 
L 31.782915 134.025547 
L 32.188733 132.522736 
L 32.594551 127.98243 
L 33.000369 119.322579 
L 34.217824 74.253189 
L 35.02946 47.50286 
L 35.841097 31.000566 
L 36.246915 31.540175 
L 36.652733 128.670432 
L 37.058551 117.12946 
L 37.464369 108.771069 
L 38.681824 60.235875 
L 39.087642 49.993045 
L 39.49346 35.732224 
L 39.899278 30.258191 
L 40.305097 31.985847 
L 40.710915 37.912951 
L 41.116733 47.425387 
L 41.928369 74.953123 
L 42.740006 105.807304 
L 43.145824 45.015124 
L 43.95746 32.469128 
L 44.363278 33.139691 
L 44.769097 36.093644 
L 45.174915 44.848318 
L 46.798187 105.256103 
L 47.204006 119.638813 
L 48.015642 133.492809 
L 48.42146 132.67534 
L 48.827278 126.23196 
L 49.233097 121.844602 
L 49.638915 104.740431 
L 50.044733 93.000848 
L 51.262187 44.291997 
L 52.073824 29.806052 
L 52.479642 32.51265 
L 52.88546 37.619067 
L 53.697097 58.90282 
L 54.914551 107.664232 
L 55.320369 115.942451 
L 55.726187 128.082156 
L 56.132006 31.305511 
L 56.537824 32.405834 
L 56.943642 36.875119 
L 58.161097 75.119692 
L 58.972733 107.967621 
L 59.784369 128.706022 
L 60.190188 133.064748 
L 60.596006 132.902329 
L 61.001824 127.316555 
L 61.407642 118.880994 
L 62.219278 90.588807 
L 62.625097 90.381871 
L 63.436733 117.896078 
L 63.842551 127.693952 
L 64.654188 135.370418 
L 65.465824 122.275388 
L 66.27746 88.627039 
L 66.683278 77.044545 
L 67.089097 58.318347 
L 67.900733 37.832098 
L 68.306551 33.437796 
L 68.712369 30.621372 
L 69.118188 128.670922 
L 69.524006 120.056028 
L 70.335642 90.165335 
L 71.147278 60.670977 
L 71.958915 38.315014 
L 72.364733 32.168995 
L 72.770551 33.278694 
L 73.176369 38.244728 
L 73.582188 47.217828 
L 74.393824 75.484812 
L 74.799642 90.273483 
L 75.20546 109.81514 
L 76.017097 128.908542 
L 76.422915 134.659348 
L 76.828733 136.703531 
L 77.234551 127.545344 
L 77.640369 121.044884 
L 78.452006 91.455719 
L 79.263642 58.944598 
L 80.075278 37.658636 
L 80.886915 31.109131 
L 81.292733 37.563847 
L 81.698551 46.210236 
L 82.104369 106.02465 
L 82.916006 74.688265 
L 83.321824 58.608409 
L 84.13346 36.563655 
L 84.539278 32.312837 
L 84.945097 33.890644 
L 85.350915 37.023958 
L 85.756733 46.436649 
L 86.162551 61.977819 
L 86.568369 72.708564 
L 87.380006 105.345466 
L 87.785824 120.249211 
L 88.191642 129.259039 
L 88.59746 132.721699 
L 89.003278 134.247732 
L 89.409097 128.886747 
L 89.814915 120.521106 
L 90.626551 92.528221 
L 91.032369 73.624548 
L 91.844006 46.351851 
L 92.249824 37.310838 
L 92.655642 33.230681 
L 93.06146 30.821151 
L 93.873097 45.987209 
L 94.278915 59.190022 
L 94.684733 76.403938 
L 95.090551 75.032214 
L 95.496369 58.919373 
L 96.308006 35.741966 
L 96.713824 32.696104 
L 97.119642 31.676991 
L 97.52546 34.949266 
L 97.931278 45.259921 
L 99.960369 119.476205 
L 100.366187 128.701256 
L 100.772006 134.611593 
L 101.177824 135.658913 
L 101.583642 35.704485 
L 101.98946 47.242763 
L 104.018551 118.697873 
L 104.830187 134.57122 
L 105.236006 133.833611 
L 105.641824 127.981438 
L 106.047642 119.815563 
L 106.45346 107.882306 
L 107.670915 57.82332 
L 108.076733 118.95011 
L 108.482551 127.667343 
L 108.888369 133.551033 
L 109.294187 132.578983 
L 109.700006 128.10693 
L 110.511642 106.74368 
L 111.729097 61.462936 
L 112.134915 48.158826 
L 112.540733 38.718715 
L 113.352369 32.309257 
L 113.758187 37.757631 
L 114.164006 46.045277 
L 114.569824 107.760743 
L 116.193097 46.453399 
L 116.598915 36.744216 
L 117.004733 32.261197 
L 117.410551 31.705009 
L 118.222187 46.238627 
L 118.628006 57.673333 
L 119.439642 89.804418 
L 120.251278 118.939116 
L 120.657097 125.569823 
L 121.062915 33.152433 
L 121.468733 32.40628 
L 121.874551 36.423195 
L 122.280369 46.430882 
L 124.30946 118.016085 
L 124.715278 127.16356 
L 125.121097 131.955637 
L 125.526915 132.581235 
L 125.932733 128.139 
L 126.744369 107.271887 
L 127.150187 90.731227 
L 127.556006 91.005782 
L 128.367642 118.991824 
L 128.77346 130.009974 
L 129.179278 133.107101 
L 129.585097 133.409774 
L 129.990915 128.936719 
L 130.802551 106.403463 
L 132.020006 59.037912 
L 132.831642 36.602072 
L 133.23746 34.552273 
L 133.643278 31.666548 
L 134.049097 129.741542 
L 134.454915 119.955086 
L 135.266551 88.554714 
L 135.672369 77.567912 
L 136.078188 58.493555 
L 136.889824 38.243194 
L 137.295642 31.446392 
L 137.70146 32.227708 
L 138.107278 37.572665 
L 138.513097 44.470247 
L 140.542188 118.034359 
L 140.948006 127.655732 
L 141.353824 133.426004 
L 141.759642 134.247616 
L 142.16546 129.131415 
L 142.571278 119.677398 
L 143.788733 74.910114 
L 144.600369 45.947317 
L 145.412006 30.761205 
L 145.817824 32.40347 
L 146.62946 47.010634 
L 147.035278 104.576874 
L 147.441097 92.509745 
L 148.658551 46.014681 
L 149.470188 30.535462 
L 149.876006 32.7958 
L 150.281824 36.995485 
L 150.687642 45.424669 
L 152.716733 118.998919 
L 153.122551 127.157673 
L 153.528369 31.189335 
L 153.934188 31.737517 
L 154.745824 46.196386 
L 157.180733 129.07415 
L 157.586551 132.372462 
L 157.992369 131.882013 
L 158.398187 127.195579 
L 158.804006 119.006013 
L 159.615642 91.766662 
L 160.02146 90.246556 
L 160.833097 118.690851 
L 161.238915 129.233221 
L 161.644733 132.202772 
L 162.050551 132.028407 
L 162.456369 129.986515 
L 162.862187 119.295158 
L 164.891278 47.616666 
L 165.702915 32.083695 
L 166.108733 31.996478 
L 166.514551 36.549276 
L 167.326187 61.228575 
L 167.732006 74.906765 
L 168.543642 107.670183 
L 169.355278 127.347001 
L 169.761097 133.315526 
L 170.166915 134.119563 
L 170.978551 118.567976 
L 171.790187 91.130462 
L 172.601824 59.704707 
L 173.007642 119.472028 
L 173.819278 134.371961 
L 174.225097 134.775438 
L 175.036733 120.268712 
L 175.848369 89.748522 
L 176.254187 71.077505 
L 177.065824 46.134939 
L 177.471642 36.908109 
L 177.87746 31.114958 
L 178.283278 32.678541 
L 178.689097 36.46728 
L 179.094915 47.831823 
L 179.500733 106.115053 
L 181.124006 48.074071 
L 181.529824 35.304601 
L 181.935642 33.734774 
L 182.34146 32.744263 
L 183.153097 45.672955 
L 184.370551 91.530304 
L 185.182187 118.873254 
L 185.588006 126.835749 
L 185.993824 33.359435 
L 186.399642 32.052643 
L 186.80546 37.599768 
L 187.211278 45.564226 
L 188.428733 90.529108 
L 189.240369 118.926701 
L 189.646187 127.707389 
L 190.052006 132.981514 
L 190.457824 133.998041 
L 190.863642 128.097085 
L 191.675278 106.966359 
L 191.675278 106.966359 
" style="fill:none;stroke:#1f77b4;stroke-linecap:square;stroke-width:1.5;"/>
   </g>
   <g id="patch_3">
    <path d="M 28.942188 143.278125 
L 28.942188 22.318125 
" style="fill:none;stroke:#000000;stroke-linecap:square;stroke-linejoin:miter;stroke-width:0.8;"/>
   </g>
   <g id="patch_4">
    <path d="M 191.26946 143.278125 
L 191.26946 22.318125 
" style="fill:none;stroke:#000000;stroke-linecap:square;stroke-linejoin:miter;stroke-width:0.8;"/>
   </g>
   <g id="patch_5">
    <path d="M 28.942187 143.278125 
L 191.26946 143.278125 
" style="fill:none;stroke:#000000;stroke-linecap:square;stroke-linejoin:miter;stroke-width:0.8;"/>
   </g>
   <g id="patch_6">
    <path d="M 28.942187 22.318125 
L 191.26946 22.318125 
" style="fill:none;stroke:#000000;stroke-linecap:square;stroke-linejoin:miter;stroke-width:0.8;"/>
   </g>
   <g id="text_4">
    <!-- Partie réelle -->
    <g transform="translate(74.255824 16.318125)scale(0.12 -0.12)">
     <defs>
      <path d="M 19.671875 64.796875 
L 19.671875 37.40625 
L 32.078125 37.40625 
Q 38.96875 37.40625 42.71875 40.96875 
Q 46.484375 44.53125 46.484375 51.125 
Q 46.484375 57.671875 42.71875 61.234375 
Q 38.96875 64.796875 32.078125 64.796875 
z
M 9.8125 72.90625 
L 32.078125 72.90625 
Q 44.34375 72.90625 50.609375 67.359375 
Q 56.890625 61.8125 56.890625 51.125 
Q 56.890625 40.328125 50.609375 34.8125 
Q 44.34375 29.296875 32.078125 29.296875 
L 19.671875 29.296875 
L 19.671875 0 
L 9.8125 0 
z
" id="DejaVuSans-80"/>
      <path d="M 34.28125 27.484375 
Q 23.390625 27.484375 19.1875 25 
Q 14.984375 22.515625 14.984375 16.5 
Q 14.984375 11.71875 18.140625 8.90625 
Q 21.296875 6.109375 26.703125 6.109375 
Q 34.1875 6.109375 38.703125 11.40625 
Q 43.21875 16.703125 43.21875 25.484375 
L 43.21875 27.484375 
z
M 52.203125 31.203125 
L 52.203125 0 
L 43.21875 0 
L 43.21875 8.296875 
Q 40.140625 3.328125 35.546875 0.953125 
Q 30.953125 -1.421875 24.3125 -1.421875 
Q 15.921875 -1.421875 10.953125 3.296875 
Q 6 8.015625 6 15.921875 
Q 6 25.140625 12.171875 29.828125 
Q 18.359375 34.515625 30.609375 34.515625 
L 43.21875 34.515625 
L 43.21875 35.40625 
Q 43.21875 41.609375 39.140625 45 
Q 35.0625 48.390625 27.6875 48.390625 
Q 23 48.390625 18.546875 47.265625 
Q 14.109375 46.140625 10.015625 43.890625 
L 10.015625 52.203125 
Q 14.9375 54.109375 19.578125 55.046875 
Q 24.21875 56 28.609375 56 
Q 40.484375 56 46.34375 49.84375 
Q 52.203125 43.703125 52.203125 31.203125 
z
" id="DejaVuSans-97"/>
      <path d="M 41.109375 46.296875 
Q 39.59375 47.171875 37.8125 47.578125 
Q 36.03125 48 33.890625 48 
Q 26.265625 48 22.1875 43.046875 
Q 18.109375 38.09375 18.109375 28.8125 
L 18.109375 0 
L 9.078125 0 
L 9.078125 54.6875 
L 18.109375 54.6875 
L 18.109375 46.1875 
Q 20.953125 51.171875 25.484375 53.578125 
Q 30.03125 56 36.53125 56 
Q 37.453125 56 38.578125 55.875 
Q 39.703125 55.765625 41.0625 55.515625 
z
" id="DejaVuSans-114"/>
      <path d="M 18.3125 70.21875 
L 18.3125 54.6875 
L 36.8125 54.6875 
L 36.8125 47.703125 
L 18.3125 47.703125 
L 18.3125 18.015625 
Q 18.3125 11.328125 20.140625 9.421875 
Q 21.96875 7.515625 27.59375 7.515625 
L 36.8125 7.515625 
L 36.8125 0 
L 27.59375 0 
Q 17.1875 0 13.234375 3.875 
Q 9.28125 7.765625 9.28125 18.015625 
L 9.28125 47.703125 
L 2.6875 47.703125 
L 2.6875 54.6875 
L 9.28125 54.6875 
L 9.28125 70.21875 
z
" id="DejaVuSans-116"/>
      <path d="M 9.421875 54.6875 
L 18.40625 54.6875 
L 18.40625 0 
L 9.421875 0 
z
M 9.421875 75.984375 
L 18.40625 75.984375 
L 18.40625 64.59375 
L 9.421875 64.59375 
z
" id="DejaVuSans-105"/>
      <path d="M 56.203125 29.59375 
L 56.203125 25.203125 
L 14.890625 25.203125 
Q 15.484375 15.921875 20.484375 11.0625 
Q 25.484375 6.203125 34.421875 6.203125 
Q 39.59375 6.203125 44.453125 7.46875 
Q 49.3125 8.734375 54.109375 11.28125 
L 54.109375 2.78125 
Q 49.265625 0.734375 44.1875 -0.34375 
Q 39.109375 -1.421875 33.890625 -1.421875 
Q 20.796875 -1.421875 13.15625 6.1875 
Q 5.515625 13.8125 5.515625 26.8125 
Q 5.515625 40.234375 12.765625 48.109375 
Q 20.015625 56 32.328125 56 
Q 43.359375 56 49.78125 48.890625 
Q 56.203125 41.796875 56.203125 29.59375 
z
M 47.21875 32.234375 
Q 47.125 39.59375 43.09375 43.984375 
Q 39.0625 48.390625 32.421875 48.390625 
Q 24.90625 48.390625 20.390625 44.140625 
Q 15.875 39.890625 15.1875 32.171875 
z
" id="DejaVuSans-101"/>
      <path id="DejaVuSans-32"/>
      <path d="M 56.203125 29.59375 
L 56.203125 25.203125 
L 14.890625 25.203125 
Q 15.484375 15.921875 20.484375 11.0625 
Q 25.484375 6.203125 34.421875 6.203125 
Q 39.59375 6.203125 44.453125 7.46875 
Q 49.3125 8.734375 54.109375 11.28125 
L 54.109375 2.78125 
Q 49.265625 0.734375 44.1875 -0.34375 
Q 39.109375 -1.421875 33.890625 -1.421875 
Q 20.796875 -1.421875 13.15625 6.1875 
Q 5.515625 13.8125 5.515625 26.8125 
Q 5.515625 40.234375 12.765625 48.109375 
Q 20.015625 56 32.328125 56 
Q 43.359375 56 49.78125 48.890625 
Q 56.203125 41.796875 56.203125 29.59375 
z
M 47.21875 32.234375 
Q 47.125 39.59375 43.09375 43.984375 
Q 39.0625 48.390625 32.421875 48.390625 
Q 24.90625 48.390625 20.390625 44.140625 
Q 15.875 39.890625 15.1875 32.171875 
z
M 38.578125 79.984375 
L 48.296875 79.984375 
L 32.375 61.625 
L 24.90625 61.625 
z
" id="DejaVuSans-233"/>
      <path d="M 9.421875 75.984375 
L 18.40625 75.984375 
L 18.40625 0 
L 9.421875 0 
z
" id="DejaVuSans-108"/>
     </defs>
     <use xlink:href="#DejaVuSans-80"/>
     <use x="55.802734" xlink:href="#DejaVuSans-97"/>
     <use x="117.082031" xlink:href="#DejaVuSans-114"/>
     <use x="158.195312" xlink:href="#DejaVuSans-116"/>
     <use x="197.404297" xlink:href="#DejaVuSans-105"/>
     <use x="225.1875" xlink:href="#DejaVuSans-101"/>
     <use x="286.710938" xlink:href="#DejaVuSans-32"/>
     <use x="318.498047" xlink:href="#DejaVuSans-114"/>
     <use x="357.361328" xlink:href="#DejaVuSans-233"/>
     <use x="418.884766" xlink:href="#DejaVuSans-101"/>
     <use x="480.408203" xlink:href="#DejaVuSans-108"/>
     <use x="508.191406" xlink:href="#DejaVuSans-108"/>
     <use x="535.974609" xlink:href="#DejaVuSans-101"/>
    </g>
   </g>
  </g>
  <g id="axes_2">
   <g id="patch_7">
    <path d="M 223.734915 143.278125 
L 386.062187 143.278125 
L 386.062187 22.318125 
L 223.734915 22.318125 
z
" style="fill:#ffffff;"/>
   </g>
   <g id="matplotlib.axis_3">
    <g id="xtick_5">
     <g id="line2d_9">
      <g>
       <use style="stroke:#000000;stroke-width:0.8;" x="244.025824" xlink:href="#me8f6d85d64" y="143.278125"/>
      </g>
     </g>
    </g>
    <g id="xtick_6">
     <g id="line2d_10">
      <g>
       <use style="stroke:#000000;stroke-width:0.8;" x="284.607642" xlink:href="#me8f6d85d64" y="143.278125"/>
      </g>
     </g>
    </g>
    <g id="xtick_7">
     <g id="line2d_11">
      <g>
       <use style="stroke:#000000;stroke-width:0.8;" x="325.18946" xlink:href="#me8f6d85d64" y="143.278125"/>
      </g>
     </g>
    </g>
    <g id="xtick_8">
     <g id="line2d_12">
      <g>
       <use style="stroke:#000000;stroke-width:0.8;" x="365.771278" xlink:href="#me8f6d85d64" y="143.278125"/>
      </g>
     </g>
    </g>
   </g>
   <g id="matplotlib.axis_4">
    <g id="ytick_4">
     <g id="line2d_13">
      <g>
       <use style="stroke:#000000;stroke-width:0.8;" x="223.734915" xlink:href="#mabc3911603" y="124.535015"/>
      </g>
     </g>
     <g id="text_5">
      <!-- 1.3 -->
      <g transform="translate(200.83179 128.334233)scale(0.1 -0.1)">
       <defs>
        <path d="M 10.6875 12.40625 
L 21 12.40625 
L 21 0 
L 10.6875 0 
z
" id="DejaVuSans-46"/>
        <path d="M 40.578125 39.3125 
Q 47.65625 37.796875 51.625 33 
Q 55.609375 28.21875 55.609375 21.1875 
Q 55.609375 10.40625 48.1875 4.484375 
Q 40.765625 -1.421875 27.09375 -1.421875 
Q 22.515625 -1.421875 17.65625 -0.515625 
Q 12.796875 0.390625 7.625 2.203125 
L 7.625 11.71875 
Q 11.71875 9.328125 16.59375 8.109375 
Q 21.484375 6.890625 26.8125 6.890625 
Q 36.078125 6.890625 40.9375 10.546875 
Q 45.796875 14.203125 45.796875 21.1875 
Q 45.796875 27.640625 41.28125 31.265625 
Q 36.765625 34.90625 28.71875 34.90625 
L 20.21875 34.90625 
L 20.21875 43.015625 
L 29.109375 43.015625 
Q 36.375 43.015625 40.234375 45.921875 
Q 44.09375 48.828125 44.09375 54.296875 
Q 44.09375 59.90625 40.109375 62.90625 
Q 36.140625 65.921875 28.71875 65.921875 
Q 24.65625 65.921875 20.015625 65.03125 
Q 15.375 64.15625 9.8125 62.3125 
L 9.8125 71.09375 
Q 15.4375 72.65625 20.34375 73.4375 
Q 25.25 74.21875 29.59375 74.21875 
Q 40.828125 74.21875 47.359375 69.109375 
Q 53.90625 64.015625 53.90625 55.328125 
Q 53.90625 49.265625 50.4375 45.09375 
Q 46.96875 40.921875 40.578125 39.3125 
z
" id="DejaVuSans-51"/>
       </defs>
       <use xlink:href="#DejaVuSans-49"/>
       <use x="63.623047" xlink:href="#DejaVuSans-46"/>
       <use x="95.410156" xlink:href="#DejaVuSans-51"/>
      </g>
     </g>
    </g>
    <g id="ytick_5">
     <g id="line2d_14">
      <g>
       <use style="stroke:#000000;stroke-width:0.8;" x="223.734915" xlink:href="#mabc3911603" y="88.2115"/>
      </g>
     </g>
     <g id="text_6">
      <!-- 1.4 -->
      <g transform="translate(200.83179 92.010718)scale(0.1 -0.1)">
       <defs>
        <path d="M 37.796875 64.3125 
L 12.890625 25.390625 
L 37.796875 25.390625 
z
M 35.203125 72.90625 
L 47.609375 72.90625 
L 47.609375 25.390625 
L 58.015625 25.390625 
L 58.015625 17.1875 
L 47.609375 17.1875 
L 47.609375 0 
L 37.796875 0 
L 37.796875 17.1875 
L 4.890625 17.1875 
L 4.890625 26.703125 
z
" id="DejaVuSans-52"/>
       </defs>
       <use xlink:href="#DejaVuSans-49"/>
       <use x="63.623047" xlink:href="#DejaVuSans-46"/>
       <use x="95.410156" xlink:href="#DejaVuSans-52"/>
      </g>
     </g>
    </g>
    <g id="ytick_6">
     <g id="line2d_15">
      <g>
       <use style="stroke:#000000;stroke-width:0.8;" x="223.734915" xlink:href="#mabc3911603" y="51.887985"/>
      </g>
     </g>
     <g id="text_7">
      <!-- 1.5 -->
      <g transform="translate(200.83179 55.687203)scale(0.1 -0.1)">
       <defs>
        <path d="M 10.796875 72.90625 
L 49.515625 72.90625 
L 49.515625 64.59375 
L 19.828125 64.59375 
L 19.828125 46.734375 
Q 21.96875 47.46875 24.109375 47.828125 
Q 26.265625 48.1875 28.421875 48.1875 
Q 40.625 48.1875 47.75 41.5 
Q 54.890625 34.8125 54.890625 23.390625 
Q 54.890625 11.625 47.5625 5.09375 
Q 40.234375 -1.421875 26.90625 -1.421875 
Q 22.3125 -1.421875 17.546875 -0.640625 
Q 12.796875 0.140625 7.71875 1.703125 
L 7.71875 11.625 
Q 12.109375 9.234375 16.796875 8.0625 
Q 21.484375 6.890625 26.703125 6.890625 
Q 35.15625 6.890625 40.078125 11.328125 
Q 45.015625 15.765625 45.015625 23.390625 
Q 45.015625 31 40.078125 35.4375 
Q 35.15625 39.890625 26.703125 39.890625 
Q 22.75 39.890625 18.8125 39.015625 
Q 14.890625 38.140625 10.796875 36.28125 
z
" id="DejaVuSans-53"/>
       </defs>
       <use xlink:href="#DejaVuSans-49"/>
       <use x="63.623047" xlink:href="#DejaVuSans-46"/>
       <use x="95.410156" xlink:href="#DejaVuSans-53"/>
      </g>
     </g>
    </g>
   </g>
   <g id="line2d_16">
    <path clip-path="url(#pabc7a69afb)" d="M 223.329097 61.255464 
L 223.734915 70.898078 
L 224.140733 91.518016 
L 224.546551 89.888773 
L 224.952369 56.191975 
L 225.358187 48.611441 
L 225.764006 85.448948 
L 226.169824 73.164409 
L 226.575642 77.367724 
L 226.98146 89.603246 
L 227.387278 84.636577 
L 227.793097 85.584306 
L 228.198915 93.01792 
L 229.010551 75.076235 
L 229.416369 75.137723 
L 229.822187 71.098172 
L 230.228006 109.239732 
L 230.633824 68.505524 
L 231.039642 75.015008 
L 231.44546 89.895354 
L 231.851278 88.617758 
L 232.257097 77.078474 
L 232.662915 86.400877 
L 233.068733 74.869993 
L 233.474551 80.34207 
L 233.880369 91.332861 
L 234.286187 72.022259 
L 234.692006 62.629318 
L 235.097824 78.239763 
L 235.90946 74.481496 
L 236.315278 79.135704 
L 236.721097 89.343786 
L 237.126915 82.009852 
L 237.532733 84.32074 
L 237.938551 69.291394 
L 238.344369 85.567982 
L 239.156006 87.144268 
L 239.561824 79.072831 
L 239.967642 75.267972 
L 240.37346 87.077931 
L 240.779278 91.323984 
L 241.185097 105.582702 
L 241.590915 101.227833 
L 241.996733 81.078967 
L 242.402551 87.7675 
L 242.808369 80.799242 
L 243.620006 100.161243 
L 244.025824 51.817577 
L 244.431642 95.005263 
L 245.243278 75.465425 
L 245.649097 84.240806 
L 246.054915 67.179388 
L 246.460733 91.04491 
L 246.866551 55.225583 
L 247.272369 82.828934 
L 247.678187 87.887877 
L 248.084006 97.444452 
L 248.489824 69.484127 
L 248.895642 93.389572 
L 249.707278 70.729204 
L 250.113097 101.746839 
L 250.518915 79.608638 
L 250.924733 70.595404 
L 251.330551 81.433429 
L 251.736369 76.726696 
L 252.142187 122.010021 
L 252.548006 92.559925 
L 252.953824 95.380423 
L 253.359642 90.796838 
L 253.76546 75.658547 
L 254.171278 83.1727 
L 254.577097 82.328807 
L 254.982915 85.304972 
L 255.388733 86.683286 
L 255.794551 98.97354 
L 256.200369 81.811144 
L 256.606187 75.23567 
L 257.012006 76.016084 
L 257.417824 70.372187 
L 257.823642 96.858113 
L 258.22946 96.007854 
L 258.635278 84.578208 
L 259.041097 99.331379 
L 259.446915 65.183645 
L 259.852733 84.859578 
L 260.258551 63.630481 
L 260.664369 95.627195 
L 261.070187 81.032981 
L 261.476006 74.073081 
L 261.881824 63.585448 
L 262.287642 93.847134 
L 262.69346 95.302524 
L 263.099278 93.58919 
L 263.505097 65.785399 
L 263.910915 81.810321 
L 264.316733 75.571209 
L 264.722551 89.209596 
L 265.128369 91.304412 
L 265.534187 81.617025 
L 265.940006 90.885345 
L 266.345824 93.290716 
L 267.15746 80.872508 
L 267.563278 90.392104 
L 267.969097 89.438009 
L 268.374915 95.801568 
L 268.780733 90.305458 
L 269.186551 63.732585 
L 269.592369 99.470852 
L 269.998187 46.705157 
L 270.404006 66.066769 
L 270.809824 70.992431 
L 271.215642 72.727459 
L 271.62146 52.890186 
L 272.027278 95.575017 
L 272.433097 71.243663 
L 272.838915 60.264564 
L 273.244733 80.77993 
L 273.650551 82.858422 
L 274.056369 71.90422 
L 274.462187 87.841198 
L 274.868006 86.250666 
L 275.273824 101.163358 
L 275.679642 67.414079 
L 276.08546 76.716997 
L 276.491278 74.069574 
L 276.897097 88.689941 
L 277.302915 55.029862 
L 277.708733 63.469877 
L 278.114551 66.188011 
L 278.520369 91.4732 
L 278.926187 78.91383 
L 279.332006 82.092167 
L 279.737824 98.242965 
L 280.143642 83.728382 
L 280.54946 76.380158 
L 280.955278 97.76358 
L 281.361097 76.20427 
L 281.766915 101.182324 
L 282.172733 91.74539 
L 282.578551 72.401705 
L 283.390187 90.001139 
L 283.796006 74.43525 
L 284.201824 75.87358 
L 284.607642 66.320469 
L 285.01346 113.259407 
L 285.419278 54.674144 
L 285.825097 71.295884 
L 286.230915 95.211982 
L 286.636733 79.055554 
L 287.042551 81.024105 
L 287.448369 90.197899 
L 287.854187 65.946565 
L 288.260006 90.150657 
L 288.665824 77.637533 
L 289.071642 87.22286 
L 289.47746 70.696382 
L 289.883278 84.739417 
L 290.289097 73.817388 
L 290.694915 102.822176 
L 291.100733 61.055803 
L 291.506551 85.465835 
L 292.318187 63.59099 
L 292.724006 87.176008 
L 293.129824 56.756143 
L 293.94146 94.748141 
L 294.347278 74.576758 
L 294.753097 77.414489 
L 295.158915 75.198777 
L 295.564733 71.365642 
L 295.970551 63.255364 
L 296.376369 68.477292 
L 296.782187 89.882754 
L 297.188006 82.437406 
L 297.593824 67.629891 
L 297.999642 70.640177 
L 298.40546 96.114764 
L 298.811278 91.562833 
L 299.622915 67.419492 
L 300.028733 77.088779 
L 300.434551 98.881482 
L 300.840369 90.636711 
L 301.246187 73.777985 
L 301.652006 101.471055 
L 302.057824 71.236042 
L 302.463642 77.697635 
L 302.86946 74.796078 
L 303.275278 84.875512 
L 303.681097 79.480337 
L 304.086915 89.131352 
L 304.492733 81.062512 
L 304.898551 92.0265 
L 305.304369 88.855697 
L 305.710187 83.786319 
L 306.116006 95.321533 
L 306.521824 85.290379 
L 306.927642 102.476245 
L 307.33346 85.590758 
L 307.739278 111.339917 
L 308.145097 78.7088 
L 308.550915 78.247774 
L 308.956733 72.449423 
L 309.362551 90.189888 
L 309.768369 75.643955 
L 310.174187 86.506791 
L 310.580006 85.367628 
L 310.985824 88.710596 
L 311.391642 80.129549 
L 312.203278 75.986206 
L 312.609097 102.18747 
L 313.420733 61.539908 
L 313.826551 69.599308 
L 314.232369 69.952471 
L 314.638187 74.694234 
L 315.449824 102.900508 
L 316.26146 78.981813 
L 316.667278 74.610836 
L 317.073097 79.140338 
L 317.478915 80.780969 
L 317.884733 75.540552 
L 318.290551 74.5613 
L 318.696369 81.351503 
L 319.102187 107.626726 
L 319.508006 94.076153 
L 319.913824 94.088364 
L 320.319642 87.162974 
L 320.72546 87.46803 
L 321.131278 90.994464 
L 321.537097 76.123946 
L 321.942915 87.375626 
L 322.348733 106.722947 
L 322.754551 85.581275 
L 323.160369 85.220968 
L 323.566187 64.585831 
L 323.972006 83.682396 
L 324.377824 80.663667 
L 324.783642 75.277455 
L 325.18946 78.484717 
L 325.595278 95.746403 
L 326.406915 66.482545 
L 326.812733 86.735723 
L 327.218551 93.388879 
L 327.624369 73.967643 
L 328.030187 102.128841 
L 328.436006 75.762816 
L 328.841824 74.660372 
L 329.247642 68.403247 
L 329.65346 103.853823 
L 330.059278 100.793438 
L 330.465097 62.406665 
L 330.870915 85.739714 
L 331.276733 87.641104 
L 331.682551 88.830323 
L 332.088369 72.515371 
L 332.494187 78.33758 
L 332.900006 94.268453 
L 333.711642 76.437965 
L 334.11746 88.921472 
L 334.523278 79.832591 
L 334.929097 88.768446 
L 335.334915 80.941789 
L 335.740733 96.601987 
L 336.146551 83.748214 
L 336.552369 74.517349 
L 336.958187 90.480264 
L 337.364006 73.148951 
L 337.769824 85.784574 
L 338.175642 84.565044 
L 338.58146 79.274484 
L 338.987278 81.938362 
L 339.393097 75.278971 
L 339.798915 95.003228 
L 340.204733 64.643594 
L 341.016369 92.401617 
L 341.422187 92.001342 
L 341.828006 95.39705 
L 342.233824 93.024805 
L 342.639642 94.250743 
L 343.04546 97.918078 
L 343.451278 69.453037 
L 343.857097 93.82189 
L 344.262915 64.025126 
L 344.668733 83.358375 
L 345.074551 77.543007 
L 345.480369 65.938554 
L 345.886187 96.521144 
L 346.292006 80.148082 
L 346.697824 83.251162 
L 347.103642 76.780736 
L 347.50946 80.579923 
L 347.915278 92.862166 
L 348.321097 71.139395 
L 348.726915 76.325036 
L 349.132733 92.625483 
L 349.538551 73.319643 
L 350.350187 97.374997 
L 350.756006 96.937743 
L 351.161824 90.365993 
L 351.567642 64.389244 
L 351.97346 73.268115 
L 352.379278 93.985957 
L 352.785097 99.969246 
L 353.190915 100.350122 
L 353.596733 77.577561 
L 354.002551 100.151804 
L 354.408369 78.383566 
L 354.814187 79.945823 
L 355.220006 82.575017 
L 355.625824 83.948524 
L 356.031642 74.0917 
L 356.43746 94.421955 
L 356.843278 96.374873 
L 357.249097 80.969415 
L 357.654915 95.415886 
L 358.060733 74.526875 
L 358.466551 74.586761 
L 358.872369 82.913284 
L 359.278187 86.616343 
L 359.684006 80.799545 
L 360.089824 95.804339 
L 360.495642 75.888605 
L 360.90146 79.215551 
L 361.307278 70.894917 
L 361.713097 78.36958 
L 362.118915 83.161009 
L 362.930551 53.253828 
L 363.336369 81.264988 
L 363.742187 77.104454 
L 364.148006 99.54087 
L 364.959642 70.82018 
L 365.36546 88.116419 
L 365.771278 80.200823 
L 366.177097 77.357808 
L 366.582915 70.070206 
L 366.988733 70.998017 
L 367.394551 82.143435 
L 367.800369 80.894201 
L 368.206187 103.52322 
L 368.612006 72.567592 
L 369.017824 68.893848 
L 369.423642 87.264342 
L 369.82946 69.498979 
L 370.235278 78.682603 
L 370.641097 80.071482 
L 371.046915 67.980716 
L 371.452733 74.19441 
L 371.858551 86.244474 
L 372.264369 73.756291 
L 372.670187 69.167727 
L 373.076006 85.267516 
L 373.481824 79.94119 
L 373.887642 102.064019 
L 374.699278 73.48042 
L 375.105097 94.345875 
L 375.510915 65.42639 
L 375.916733 76.089522 
L 376.322551 67.767459 
L 376.728369 93.185668 
L 377.134187 83.856466 
L 377.540006 94.337171 
L 377.945824 77.061933 
L 378.351642 83.285976 
L 378.75746 98.633151 
L 379.163278 94.553676 
L 379.569097 100.754727 
L 379.974915 99.80834 
L 380.380733 85.529747 
L 380.786551 92.537885 
L 381.192369 79.981849 
L 381.598187 89.734231 
L 382.004006 85.75777 
L 382.409824 85.105787 
L 382.815642 52.511736 
L 383.22146 104.649609 
L 383.627278 77.541491 
L 384.033097 83.244277 
L 384.438915 94.00934 
L 385.250551 76.591251 
L 385.656369 84.479914 
L 386.062187 86.663801 
L 386.468006 71.845937 
L 386.468006 71.845937 
" style="fill:none;stroke:#1f77b4;stroke-linecap:square;stroke-width:1.5;"/>
   </g>
   <g id="patch_8">
    <path d="M 223.734915 143.278125 
L 223.734915 22.318125 
" style="fill:none;stroke:#000000;stroke-linecap:square;stroke-linejoin:miter;stroke-width:0.8;"/>
   </g>
   <g id="patch_9">
    <path d="M 386.062187 143.278125 
L 386.062187 22.318125 
" style="fill:none;stroke:#000000;stroke-linecap:square;stroke-linejoin:miter;stroke-width:0.8;"/>
   </g>
   <g id="patch_10">
    <path d="M 223.734915 143.278125 
L 386.062187 143.278125 
" style="fill:none;stroke:#000000;stroke-linecap:square;stroke-linejoin:miter;stroke-width:0.8;"/>
   </g>
   <g id="patch_11">
    <path d="M 223.734915 22.318125 
L 386.062187 22.318125 
" style="fill:none;stroke:#000000;stroke-linecap:square;stroke-linejoin:miter;stroke-width:0.8;"/>
   </g>
   <g id="text_8">
    <!-- Module -->
    <g transform="translate(283.080114 16.318125)scale(0.12 -0.12)">
     <defs>
      <path d="M 9.8125 72.90625 
L 24.515625 72.90625 
L 43.109375 23.296875 
L 61.8125 72.90625 
L 76.515625 72.90625 
L 76.515625 0 
L 66.890625 0 
L 66.890625 64.015625 
L 48.09375 14.015625 
L 38.1875 14.015625 
L 19.390625 64.015625 
L 19.390625 0 
L 9.8125 0 
z
" id="DejaVuSans-77"/>
      <path d="M 30.609375 48.390625 
Q 23.390625 48.390625 19.1875 42.75 
Q 14.984375 37.109375 14.984375 27.296875 
Q 14.984375 17.484375 19.15625 11.84375 
Q 23.34375 6.203125 30.609375 6.203125 
Q 37.796875 6.203125 41.984375 11.859375 
Q 46.1875 17.53125 46.1875 27.296875 
Q 46.1875 37.015625 41.984375 42.703125 
Q 37.796875 48.390625 30.609375 48.390625 
z
M 30.609375 56 
Q 42.328125 56 49.015625 48.375 
Q 55.71875 40.765625 55.71875 27.296875 
Q 55.71875 13.875 49.015625 6.21875 
Q 42.328125 -1.421875 30.609375 -1.421875 
Q 18.84375 -1.421875 12.171875 6.21875 
Q 5.515625 13.875 5.515625 27.296875 
Q 5.515625 40.765625 12.171875 48.375 
Q 18.84375 56 30.609375 56 
z
" id="DejaVuSans-111"/>
      <path d="M 45.40625 46.390625 
L 45.40625 75.984375 
L 54.390625 75.984375 
L 54.390625 0 
L 45.40625 0 
L 45.40625 8.203125 
Q 42.578125 3.328125 38.25 0.953125 
Q 33.9375 -1.421875 27.875 -1.421875 
Q 17.96875 -1.421875 11.734375 6.484375 
Q 5.515625 14.40625 5.515625 27.296875 
Q 5.515625 40.1875 11.734375 48.09375 
Q 17.96875 56 27.875 56 
Q 33.9375 56 38.25 53.625 
Q 42.578125 51.265625 45.40625 46.390625 
z
M 14.796875 27.296875 
Q 14.796875 17.390625 18.875 11.75 
Q 22.953125 6.109375 30.078125 6.109375 
Q 37.203125 6.109375 41.296875 11.75 
Q 45.40625 17.390625 45.40625 27.296875 
Q 45.40625 37.203125 41.296875 42.84375 
Q 37.203125 48.484375 30.078125 48.484375 
Q 22.953125 48.484375 18.875 42.84375 
Q 14.796875 37.203125 14.796875 27.296875 
z
" id="DejaVuSans-100"/>
      <path d="M 8.5 21.578125 
L 8.5 54.6875 
L 17.484375 54.6875 
L 17.484375 21.921875 
Q 17.484375 14.15625 20.5 10.265625 
Q 23.53125 6.390625 29.59375 6.390625 
Q 36.859375 6.390625 41.078125 11.03125 
Q 45.3125 15.671875 45.3125 23.6875 
L 45.3125 54.6875 
L 54.296875 54.6875 
L 54.296875 0 
L 45.3125 0 
L 45.3125 8.40625 
Q 42.046875 3.421875 37.71875 1 
Q 33.40625 -1.421875 27.6875 -1.421875 
Q 18.265625 -1.421875 13.375 4.4375 
Q 8.5 10.296875 8.5 21.578125 
z
M 31.109375 56 
z
" id="DejaVuSans-117"/>
     </defs>
     <use xlink:href="#DejaVuSans-77"/>
     <use x="86.279297" xlink:href="#DejaVuSans-111"/>
     <use x="147.460938" xlink:href="#DejaVuSans-100"/>
     <use x="210.9375" xlink:href="#DejaVuSans-117"/>
     <use x="274.316406" xlink:href="#DejaVuSans-108"/>
     <use x="302.099609" xlink:href="#DejaVuSans-101"/>
    </g>
   </g>
  </g>
  <g id="axes_3">
   <g id="patch_12">
    <path d="M 28.942188 288.430125 
L 191.26946 288.430125 
L 191.26946 167.470125 
L 28.942188 167.470125 
z
" style="fill:#ffffff;"/>
   </g>
   <g id="matplotlib.axis_5">
    <g id="xtick_9">
     <g id="line2d_17">
      <g>
       <use style="stroke:#000000;stroke-width:0.8;" x="49.233097" xlink:href="#me8f6d85d64" y="288.430125"/>
      </g>
     </g>
     <g id="text_9">
      <!-- 11100 -->
      <g transform="translate(33.326847 303.028562)scale(0.1 -0.1)">
       <use xlink:href="#DejaVuSans-49"/>
       <use x="63.623047" xlink:href="#DejaVuSans-49"/>
       <use x="127.246094" xlink:href="#DejaVuSans-49"/>
       <use x="190.869141" xlink:href="#DejaVuSans-48"/>
       <use x="254.492188" xlink:href="#DejaVuSans-48"/>
      </g>
     </g>
    </g>
    <g id="xtick_10">
     <g id="line2d_18">
      <g>
       <use style="stroke:#000000;stroke-width:0.8;" x="89.814915" xlink:href="#me8f6d85d64" y="288.430125"/>
      </g>
     </g>
     <g id="text_10">
      <!-- 11200 -->
      <g transform="translate(73.908665 303.028562)scale(0.1 -0.1)">
       <defs>
        <path d="M 19.1875 8.296875 
L 53.609375 8.296875 
L 53.609375 0 
L 7.328125 0 
L 7.328125 8.296875 
Q 12.9375 14.109375 22.625 23.890625 
Q 32.328125 33.6875 34.8125 36.53125 
Q 39.546875 41.84375 41.421875 45.53125 
Q 43.3125 49.21875 43.3125 52.78125 
Q 43.3125 58.59375 39.234375 62.25 
Q 35.15625 65.921875 28.609375 65.921875 
Q 23.96875 65.921875 18.8125 64.3125 
Q 13.671875 62.703125 7.8125 59.421875 
L 7.8125 69.390625 
Q 13.765625 71.78125 18.9375 73 
Q 24.125 74.21875 28.421875 74.21875 
Q 39.75 74.21875 46.484375 68.546875 
Q 53.21875 62.890625 53.21875 53.421875 
Q 53.21875 48.921875 51.53125 44.890625 
Q 49.859375 40.875 45.40625 35.40625 
Q 44.1875 33.984375 37.640625 27.21875 
Q 31.109375 20.453125 19.1875 8.296875 
z
" id="DejaVuSans-50"/>
       </defs>
       <use xlink:href="#DejaVuSans-49"/>
       <use x="63.623047" xlink:href="#DejaVuSans-49"/>
       <use x="127.246094" xlink:href="#DejaVuSans-50"/>
       <use x="190.869141" xlink:href="#DejaVuSans-48"/>
       <use x="254.492188" xlink:href="#DejaVuSans-48"/>
      </g>
     </g>
    </g>
    <g id="xtick_11">
     <g id="line2d_19">
      <g>
       <use style="stroke:#000000;stroke-width:0.8;" x="130.396733" xlink:href="#me8f6d85d64" y="288.430125"/>
      </g>
     </g>
     <g id="text_11">
      <!-- 11300 -->
      <g transform="translate(114.490483 303.028562)scale(0.1 -0.1)">
       <use xlink:href="#DejaVuSans-49"/>
       <use x="63.623047" xlink:href="#DejaVuSans-49"/>
       <use x="127.246094" xlink:href="#DejaVuSans-51"/>
       <use x="190.869141" xlink:href="#DejaVuSans-48"/>
       <use x="254.492188" xlink:href="#DejaVuSans-48"/>
      </g>
     </g>
    </g>
    <g id="xtick_12">
     <g id="line2d_20">
      <g>
       <use style="stroke:#000000;stroke-width:0.8;" x="170.978551" xlink:href="#me8f6d85d64" y="288.430125"/>
      </g>
     </g>
     <g id="text_12">
      <!-- 11400 -->
      <g transform="translate(155.072301 303.028562)scale(0.1 -0.1)">
       <use xlink:href="#DejaVuSans-49"/>
       <use x="63.623047" xlink:href="#DejaVuSans-49"/>
       <use x="127.246094" xlink:href="#DejaVuSans-52"/>
       <use x="190.869141" xlink:href="#DejaVuSans-48"/>
       <use x="254.492188" xlink:href="#DejaVuSans-48"/>
      </g>
     </g>
    </g>
   </g>
   <g id="matplotlib.axis_6">
    <g id="ytick_7">
     <g id="line2d_21">
      <g>
       <use style="stroke:#000000;stroke-width:0.8;" x="28.942188" xlink:href="#mabc3911603" y="263.472655"/>
      </g>
     </g>
     <g id="text_13">
      <!-- −1 -->
      <g transform="translate(7.2 267.271874)scale(0.1 -0.1)">
       <use xlink:href="#DejaVuSans-8722"/>
       <use x="83.789062" xlink:href="#DejaVuSans-49"/>
      </g>
     </g>
    </g>
    <g id="ytick_8">
     <g id="line2d_22">
      <g>
       <use style="stroke:#000000;stroke-width:0.8;" x="28.942188" xlink:href="#mabc3911603" y="227.402902"/>
      </g>
     </g>
     <g id="text_14">
      <!-- 0 -->
      <g transform="translate(15.579688 231.202121)scale(0.1 -0.1)">
       <use xlink:href="#DejaVuSans-48"/>
      </g>
     </g>
    </g>
    <g id="ytick_9">
     <g id="line2d_23">
      <g>
       <use style="stroke:#000000;stroke-width:0.8;" x="28.942188" xlink:href="#mabc3911603" y="191.333149"/>
      </g>
     </g>
     <g id="text_15">
      <!-- 1 -->
      <g transform="translate(15.579688 195.132368)scale(0.1 -0.1)">
       <use xlink:href="#DejaVuSans-49"/>
      </g>
     </g>
    </g>
   </g>
   <g id="line2d_24">
    <path clip-path="url(#p710aeac829)" d="M 28.536369 251.187071 
L 29.348006 272.34979 
L 29.753824 277.125646 
L 30.159642 174.431842 
L 30.56546 179.086971 
L 30.971278 190.384762 
L 33.000369 262.757623 
L 33.406187 272.006116 
L 33.812006 277.888142 
L 34.217824 278.473206 
L 34.623642 273.274236 
L 35.02946 265.722109 
L 36.246915 221.03163 
L 36.652733 248.328187 
L 37.058551 264.477135 
L 37.464369 272.057129 
L 37.870187 277.434788 
L 38.276006 278.262233 
L 38.681824 273.383082 
L 39.087642 265.258568 
L 41.116733 189.615334 
L 41.522551 181.604065 
L 41.928369 177.652924 
L 42.334187 176.876182 
L 42.740006 181.961778 
L 43.145824 263.520453 
L 43.551642 250.531994 
L 43.95746 231.720484 
L 45.580733 181.937634 
L 45.986551 177.906946 
L 46.392369 179.014411 
L 46.798187 183.564452 
L 47.204006 191.73184 
L 47.609824 202.280511 
L 48.827278 250.933991 
L 49.233097 264.9716 
L 49.638915 272.188992 
L 50.044733 277.241733 
L 50.450551 278.660589 
L 50.856369 272.011581 
L 51.262187 263.055043 
L 53.291278 191.700903 
L 53.697097 180.88863 
L 54.102915 177.927405 
L 54.508733 176.981696 
L 54.914551 181.40803 
L 55.726187 203.004612 
L 56.132006 235.280707 
L 56.943642 204.091169 
L 57.755278 182.662369 
L 58.161097 178.233361 
L 58.566915 178.101798 
L 58.972733 182.13139 
L 59.378551 190.431647 
L 61.81346 274.35496 
L 62.219278 278.539625 
L 62.625097 175.66924 
L 63.436733 192.077496 
L 63.842551 203.324071 
L 65.060006 251.146451 
L 65.871642 271.833558 
L 66.27746 278.294439 
L 66.683278 278.97004 
L 67.089097 274.272953 
L 67.494915 263.581476 
L 68.712369 220.998548 
L 69.118188 250.190697 
L 69.524006 263.429122 
L 69.929824 272.158218 
L 70.335642 277.067641 
L 70.74146 277.742855 
L 71.147278 272.430408 
L 71.553097 264.007019 
L 71.958915 251.284345 
L 73.176369 204.184764 
L 73.988006 182.71779 
L 74.393824 175.00048 
L 74.799642 178.574008 
L 75.20546 179.871341 
L 75.611278 189.607663 
L 76.017097 202.73568 
L 76.422915 222.124583 
L 76.828733 231.96279 
L 77.640369 263.012559 
L 78.046188 274.781161 
L 78.452006 277.922283 
L 78.857824 277.636386 
L 79.263642 273.668205 
L 80.075278 250.168914 
L 80.886915 218.752274 
L 81.698551 190.738347 
L 82.104369 272.246228 
L 82.510188 280.481132 
L 82.916006 279.712319 
L 83.321824 274.133092 
L 84.13346 249.58931 
L 85.756733 190.836267 
L 86.162551 182.504724 
L 86.568369 176.733621 
L 86.974187 178.826409 
L 87.380006 182.554748 
L 87.785824 191.12394 
L 89.814915 264.267741 
L 90.220733 269.199341 
L 90.626551 280.366038 
L 91.032369 278.743907 
L 91.844006 263.507347 
L 92.655642 235.000541 
L 93.873097 191.469754 
L 94.684733 175.574957 
L 95.090551 277.628393 
L 95.496369 273.440932 
L 96.308006 251.914088 
L 97.119642 220.540276 
L 97.931278 193.637295 
L 98.337097 178.960577 
L 98.742915 176.576569 
L 99.148733 178.031986 
L 99.554551 181.665669 
L 99.960369 191.046994 
L 100.366187 203.235228 
L 100.772006 220.554749 
L 101.177824 232.101976 
L 101.583642 204.61268 
L 102.395278 180.687216 
L 102.801097 175.473898 
L 103.206915 175.622883 
L 104.424369 200.651285 
L 105.641824 247.687871 
L 106.45346 272.934664 
L 107.265097 278.95877 
L 107.670915 272.411183 
L 108.076733 190.162245 
L 108.888369 218.911055 
L 109.700006 251.449302 
L 110.511642 271.84933 
L 110.91746 277.716221 
L 111.323278 276.525589 
L 111.729097 273.427495 
L 112.540733 252.300685 
L 113.758187 202.736 
L 114.164006 190.676055 
L 114.569824 271.136093 
L 114.975642 278.248968 
L 115.38146 277.41325 
L 115.787278 272.746489 
L 116.598915 249.686652 
L 117.410551 220.507801 
L 118.222187 191.855089 
L 118.628006 180.646574 
L 119.033824 175.584353 
L 119.439642 175.547137 
L 119.84546 180.962725 
L 120.657097 203.23801 
L 121.062915 233.688625 
L 121.874551 204.52706 
L 122.686187 181.303699 
L 123.092006 176.156142 
L 123.497824 176.199119 
L 123.903642 181.493085 
L 125.121097 218.216779 
L 125.526915 236.978663 
L 126.744369 273.00043 
L 127.150187 277.376636 
L 127.556006 179.420149 
L 127.961824 182.572008 
L 128.367642 191.659119 
L 128.77346 203.472416 
L 130.396733 264.807178 
L 131.208369 277.989804 
L 131.614188 279.371448 
L 132.020006 272.052704 
L 132.831642 250.781424 
L 133.643278 220.628627 
L 134.049097 249.610448 
L 134.454915 264.545391 
L 134.860733 271.377581 
L 135.672369 280.191675 
L 136.484006 264.321773 
L 137.295642 234.933889 
L 138.107278 206.656702 
L 138.918915 181.30286 
L 139.324733 177.467373 
L 139.730551 177.254569 
L 140.136369 181.793095 
L 140.542188 190.130924 
L 141.759642 234.605607 
L 142.16546 247.140782 
L 142.571278 264.156843 
L 142.977097 272.684382 
L 143.382915 277.380665 
L 143.788733 278.158512 
L 144.194551 272.610786 
L 144.600369 263.630512 
L 146.223642 203.472031 
L 146.62946 192.462632 
L 147.035278 272.225184 
L 147.441097 276.494333 
L 147.846915 276.839779 
L 148.252733 272.023994 
L 148.658551 264.519901 
L 149.470188 234.507391 
L 150.281824 204.032921 
L 150.687642 190.384186 
L 151.499278 176.98462 
L 151.905097 176.713936 
L 152.310915 181.913667 
L 152.716733 191.014212 
L 153.122551 204.06661 
L 153.528369 234.065966 
L 153.934188 220.51839 
L 154.340006 202.605616 
L 155.151642 181.893049 
L 155.55746 178.811596 
L 155.963278 178.398742 
L 156.369097 182.317276 
L 156.774915 189.676284 
L 157.992369 233.203898 
L 158.804006 264.203385 
L 159.615642 278.110294 
L 160.02146 176.610224 
L 160.427278 182.104477 
L 160.833097 191.179748 
L 161.644733 219.869405 
L 162.862187 261.370496 
L 163.268006 274.294281 
L 163.673824 278.324431 
L 164.079642 277.806342 
L 164.48546 272.436144 
L 164.891278 264.507883 
L 167.326187 181.254667 
L 167.732006 175.561034 
L 168.137824 174.46425 
L 168.94946 189.830064 
L 170.572733 251.514288 
L 171.384369 273.819706 
L 171.790187 279.053333 
L 172.196006 279.044914 
L 172.601824 272.916084 
L 173.007642 191.534559 
L 173.819278 219.708591 
L 175.036733 264.07448 
L 175.442551 273.149248 
L 175.848369 278.252387 
L 176.254187 278.554017 
L 176.660006 273.070707 
L 177.471642 251.424298 
L 178.689097 205.658954 
L 179.094915 193.051275 
L 179.500733 272.304134 
L 179.906551 278.755125 
L 180.312369 276.883766 
L 180.718187 273.612204 
L 181.124006 265.574263 
L 182.747278 204.756667 
L 183.558915 180.796377 
L 183.964733 178.471762 
L 184.370551 178.284232 
L 184.776369 183.813882 
L 185.588006 201.978752 
L 185.993824 234.272938 
L 187.617097 181.106938 
L 188.022915 173.833028 
L 188.428733 179.133758 
L 188.834551 181.465102 
L 189.240369 191.315559 
L 191.675278 273.641864 
L 191.675278 273.641864 
" style="fill:none;stroke:#1f77b4;stroke-linecap:square;stroke-width:1.5;"/>
   </g>
   <g id="patch_13">
    <path d="M 28.942188 288.430125 
L 28.942188 167.470125 
" style="fill:none;stroke:#000000;stroke-linecap:square;stroke-linejoin:miter;stroke-width:0.8;"/>
   </g>
   <g id="patch_14">
    <path d="M 191.26946 288.430125 
L 191.26946 167.470125 
" style="fill:none;stroke:#000000;stroke-linecap:square;stroke-linejoin:miter;stroke-width:0.8;"/>
   </g>
   <g id="patch_15">
    <path d="M 28.942187 288.430125 
L 191.26946 288.430125 
" style="fill:none;stroke:#000000;stroke-linecap:square;stroke-linejoin:miter;stroke-width:0.8;"/>
   </g>
   <g id="patch_16">
    <path d="M 28.942187 167.470125 
L 191.26946 167.470125 
" style="fill:none;stroke:#000000;stroke-linecap:square;stroke-linejoin:miter;stroke-width:0.8;"/>
   </g>
   <g id="text_16">
    <!-- Partie imaginaire -->
    <g transform="translate(59.163011 161.470125)scale(0.12 -0.12)">
     <defs>
      <path d="M 52 44.1875 
Q 55.375 50.25 60.0625 53.125 
Q 64.75 56 71.09375 56 
Q 79.640625 56 84.28125 50.015625 
Q 88.921875 44.046875 88.921875 33.015625 
L 88.921875 0 
L 79.890625 0 
L 79.890625 32.71875 
Q 79.890625 40.578125 77.09375 44.375 
Q 74.3125 48.1875 68.609375 48.1875 
Q 61.625 48.1875 57.5625 43.546875 
Q 53.515625 38.921875 53.515625 30.90625 
L 53.515625 0 
L 44.484375 0 
L 44.484375 32.71875 
Q 44.484375 40.625 41.703125 44.40625 
Q 38.921875 48.1875 33.109375 48.1875 
Q 26.21875 48.1875 22.15625 43.53125 
Q 18.109375 38.875 18.109375 30.90625 
L 18.109375 0 
L 9.078125 0 
L 9.078125 54.6875 
L 18.109375 54.6875 
L 18.109375 46.1875 
Q 21.1875 51.21875 25.484375 53.609375 
Q 29.78125 56 35.6875 56 
Q 41.65625 56 45.828125 52.96875 
Q 50 49.953125 52 44.1875 
z
" id="DejaVuSans-109"/>
      <path d="M 45.40625 27.984375 
Q 45.40625 37.75 41.375 43.109375 
Q 37.359375 48.484375 30.078125 48.484375 
Q 22.859375 48.484375 18.828125 43.109375 
Q 14.796875 37.75 14.796875 27.984375 
Q 14.796875 18.265625 18.828125 12.890625 
Q 22.859375 7.515625 30.078125 7.515625 
Q 37.359375 7.515625 41.375 12.890625 
Q 45.40625 18.265625 45.40625 27.984375 
z
M 54.390625 6.78125 
Q 54.390625 -7.171875 48.1875 -13.984375 
Q 42 -20.796875 29.203125 -20.796875 
Q 24.46875 -20.796875 20.265625 -20.09375 
Q 16.0625 -19.390625 12.109375 -17.921875 
L 12.109375 -9.1875 
Q 16.0625 -11.328125 19.921875 -12.34375 
Q 23.78125 -13.375 27.78125 -13.375 
Q 36.625 -13.375 41.015625 -8.765625 
Q 45.40625 -4.15625 45.40625 5.171875 
L 45.40625 9.625 
Q 42.625 4.78125 38.28125 2.390625 
Q 33.9375 0 27.875 0 
Q 17.828125 0 11.671875 7.65625 
Q 5.515625 15.328125 5.515625 27.984375 
Q 5.515625 40.671875 11.671875 48.328125 
Q 17.828125 56 27.875 56 
Q 33.9375 56 38.28125 53.609375 
Q 42.625 51.21875 45.40625 46.390625 
L 45.40625 54.6875 
L 54.390625 54.6875 
z
" id="DejaVuSans-103"/>
      <path d="M 54.890625 33.015625 
L 54.890625 0 
L 45.90625 0 
L 45.90625 32.71875 
Q 45.90625 40.484375 42.875 44.328125 
Q 39.84375 48.1875 33.796875 48.1875 
Q 26.515625 48.1875 22.3125 43.546875 
Q 18.109375 38.921875 18.109375 30.90625 
L 18.109375 0 
L 9.078125 0 
L 9.078125 54.6875 
L 18.109375 54.6875 
L 18.109375 46.1875 
Q 21.34375 51.125 25.703125 53.5625 
Q 30.078125 56 35.796875 56 
Q 45.21875 56 50.046875 50.171875 
Q 54.890625 44.34375 54.890625 33.015625 
z
" id="DejaVuSans-110"/>
     </defs>
     <use xlink:href="#DejaVuSans-80"/>
     <use x="55.802734" xlink:href="#DejaVuSans-97"/>
     <use x="117.082031" xlink:href="#DejaVuSans-114"/>
     <use x="158.195312" xlink:href="#DejaVuSans-116"/>
     <use x="197.404297" xlink:href="#DejaVuSans-105"/>
     <use x="225.1875" xlink:href="#DejaVuSans-101"/>
     <use x="286.710938" xlink:href="#DejaVuSans-32"/>
     <use x="318.498047" xlink:href="#DejaVuSans-105"/>
     <use x="346.28125" xlink:href="#DejaVuSans-109"/>
     <use x="443.693359" xlink:href="#DejaVuSans-97"/>
     <use x="504.972656" xlink:href="#DejaVuSans-103"/>
     <use x="568.449219" xlink:href="#DejaVuSans-105"/>
     <use x="596.232422" xlink:href="#DejaVuSans-110"/>
     <use x="659.611328" xlink:href="#DejaVuSans-97"/>
     <use x="720.890625" xlink:href="#DejaVuSans-105"/>
     <use x="748.673828" xlink:href="#DejaVuSans-114"/>
     <use x="787.537109" xlink:href="#DejaVuSans-101"/>
    </g>
   </g>
  </g>
  <g id="axes_4">
   <g id="patch_17">
    <path d="M 223.734915 288.430125 
L 386.062187 288.430125 
L 386.062187 167.470125 
L 223.734915 167.470125 
z
" style="fill:#ffffff;"/>
   </g>
   <g id="matplotlib.axis_7">
    <g id="xtick_13">
     <g id="line2d_25">
      <g>
       <use style="stroke:#000000;stroke-width:0.8;" x="244.025824" xlink:href="#me8f6d85d64" y="288.430125"/>
      </g>
     </g>
     <g id="text_17">
      <!-- 11100 -->
      <g transform="translate(228.119574 303.028562)scale(0.1 -0.1)">
       <use xlink:href="#DejaVuSans-49"/>
       <use x="63.623047" xlink:href="#DejaVuSans-49"/>
       <use x="127.246094" xlink:href="#DejaVuSans-49"/>
       <use x="190.869141" xlink:href="#DejaVuSans-48"/>
       <use x="254.492188" xlink:href="#DejaVuSans-48"/>
      </g>
     </g>
    </g>
    <g id="xtick_14">
     <g id="line2d_26">
      <g>
       <use style="stroke:#000000;stroke-width:0.8;" x="284.607642" xlink:href="#me8f6d85d64" y="288.430125"/>
      </g>
     </g>
     <g id="text_18">
      <!-- 11200 -->
      <g transform="translate(268.701392 303.028562)scale(0.1 -0.1)">
       <use xlink:href="#DejaVuSans-49"/>
       <use x="63.623047" xlink:href="#DejaVuSans-49"/>
       <use x="127.246094" xlink:href="#DejaVuSans-50"/>
       <use x="190.869141" xlink:href="#DejaVuSans-48"/>
       <use x="254.492188" xlink:href="#DejaVuSans-48"/>
      </g>
     </g>
    </g>
    <g id="xtick_15">
     <g id="line2d_27">
      <g>
       <use style="stroke:#000000;stroke-width:0.8;" x="325.18946" xlink:href="#me8f6d85d64" y="288.430125"/>
      </g>
     </g>
     <g id="text_19">
      <!-- 11300 -->
      <g transform="translate(309.28321 303.028562)scale(0.1 -0.1)">
       <use xlink:href="#DejaVuSans-49"/>
       <use x="63.623047" xlink:href="#DejaVuSans-49"/>
       <use x="127.246094" xlink:href="#DejaVuSans-51"/>
       <use x="190.869141" xlink:href="#DejaVuSans-48"/>
       <use x="254.492188" xlink:href="#DejaVuSans-48"/>
      </g>
     </g>
    </g>
    <g id="xtick_16">
     <g id="line2d_28">
      <g>
       <use style="stroke:#000000;stroke-width:0.8;" x="365.771278" xlink:href="#me8f6d85d64" y="288.430125"/>
      </g>
     </g>
     <g id="text_20">
      <!-- 11400 -->
      <g transform="translate(349.865028 303.028562)scale(0.1 -0.1)">
       <use xlink:href="#DejaVuSans-49"/>
       <use x="63.623047" xlink:href="#DejaVuSans-49"/>
       <use x="127.246094" xlink:href="#DejaVuSans-52"/>
       <use x="190.869141" xlink:href="#DejaVuSans-48"/>
       <use x="254.492188" xlink:href="#DejaVuSans-48"/>
      </g>
     </g>
    </g>
   </g>
   <g id="matplotlib.axis_8">
    <g id="ytick_10">
     <g id="line2d_29">
      <g>
       <use style="stroke:#000000;stroke-width:0.8;" x="223.734915" xlink:href="#mabc3911603" y="263.699116"/>
      </g>
     </g>
     <g id="text_21">
      <!-- −2 -->
      <g transform="translate(201.992727 267.498334)scale(0.1 -0.1)">
       <use xlink:href="#DejaVuSans-8722"/>
       <use x="83.789062" xlink:href="#DejaVuSans-50"/>
      </g>
     </g>
    </g>
    <g id="ytick_11">
     <g id="line2d_30">
      <g>
       <use style="stroke:#000000;stroke-width:0.8;" x="223.734915" xlink:href="#mabc3911603" y="227.826916"/>
      </g>
     </g>
     <g id="text_22">
      <!-- 0 -->
      <g transform="translate(210.372415 231.626135)scale(0.1 -0.1)">
       <use xlink:href="#DejaVuSans-48"/>
      </g>
     </g>
    </g>
    <g id="ytick_12">
     <g id="line2d_31">
      <g>
       <use style="stroke:#000000;stroke-width:0.8;" x="223.734915" xlink:href="#mabc3911603" y="191.954717"/>
      </g>
     </g>
     <g id="text_23">
      <!-- 2 -->
      <g transform="translate(210.372415 195.753936)scale(0.1 -0.1)">
       <use xlink:href="#DejaVuSans-50"/>
      </g>
     </g>
    </g>
   </g>
   <g id="line2d_32">
    <path clip-path="url(#pe9f19c6f5a)" d="M 223.329097 275.857357 
L 224.140733 264.257481 
L 224.546551 258.792404 
L 224.952369 196.740347 
L 226.575642 173.828356 
L 226.98146 281.116081 
L 231.039642 225.615567 
L 231.44546 276.484263 
L 231.851278 269.371828 
L 232.257097 265.416802 
L 233.068733 252.537446 
L 233.880369 243.15438 
L 234.692006 229.860135 
L 235.097824 225.278151 
L 235.90946 213.185307 
L 237.126915 196.93261 
L 237.532733 191.281204 
L 237.938551 241.47456 
L 238.344369 236.312615 
L 238.750187 229.357116 
L 239.967642 214.48169 
L 240.779278 202.636212 
L 241.590915 191.197855 
L 242.808369 174.303851 
L 243.214187 282.051098 
L 243.620006 275.252295 
L 244.025824 270.410297 
L 244.83746 259.581272 
L 246.866551 230.560253 
L 249.30146 196.36145 
L 250.518915 180.359151 
L 250.924733 230.541678 
L 254.982915 174.273138 
L 255.388733 281.319051 
L 256.200369 269.999909 
L 257.012006 258.671066 
L 257.417824 197.083418 
L 258.22946 185.650656 
L 259.041097 174.100406 
L 259.446915 282.242561 
L 259.852733 275.457498 
L 260.258551 271.044387 
L 261.070187 258.003741 
L 261.476006 253.963498 
L 262.69346 235.66081 
L 263.505097 225.64286 
L 263.910915 275.890054 
L 268.780733 208.201548 
L 269.998187 190.413727 
L 270.809824 180.305479 
L 271.215642 173.301525 
L 271.62146 282.658606 
L 272.433097 270.703968 
L 274.056369 247.419761 
L 276.491278 213.757364 
L 276.897097 264.537313 
L 283.390187 173.989012 
L 283.796006 281.655801 
L 285.825097 252.785076 
L 287.854187 225.17678 
L 289.47746 201.898862 
L 289.883278 253.203865 
L 291.912369 225.440672 
L 292.724006 214.723247 
L 293.535642 202.427599 
L 295.158915 180.18694 
L 295.564733 173.840193 
L 295.970551 282.58177 
L 296.376369 219.765881 
L 298.811278 185.401506 
L 299.217097 181.274296 
L 299.622915 174.772525 
L 300.028733 281.299705 
L 300.840369 270.797114 
L 302.463642 246.871694 
L 302.86946 185.857813 
L 303.681097 174.457956 
L 304.086915 281.13733 
L 306.927642 241.872247 
L 307.33346 237.022518 
L 308.550915 218.865738 
L 308.956733 213.782345 
L 309.362551 265.269467 
L 312.609097 219.306547 
L 314.232369 197.285483 
L 315.449824 180.720908 
L 315.855642 230.078819 
L 319.913824 174.798858 
L 320.319642 280.760058 
L 321.537097 264.802298 
L 321.942915 258.782209 
L 322.348733 196.658223 
L 323.972006 174.526744 
L 324.377824 281.14247 
L 328.436006 225.471513 
L 328.841824 276.234955 
L 330.059278 258.057364 
L 330.465097 254.186193 
L 330.870915 246.985437 
L 331.276733 242.511812 
L 332.494187 224.758891 
L 333.305824 215.029209 
L 334.523278 195.79741 
L 334.929097 191.737737 
L 336.146551 173.750917 
L 336.552369 281.675536 
L 336.958187 276.938025 
L 337.769824 264.396033 
L 338.58146 253.190475 
L 341.016369 218.891299 
L 341.422187 213.99165 
L 341.828006 264.076824 
L 342.233824 259.461707 
L 345.480369 213.861016 
L 347.915278 180.181723 
L 348.321097 230.122943 
L 348.726915 225.430355 
L 349.132733 218.531592 
L 350.350187 203.254616 
L 351.161824 191.425508 
L 352.379278 173.877392 
L 352.785097 282.060741 
L 354.408369 259.099427 
L 354.814187 197.0833 
L 356.43746 174.198282 
L 356.843278 281.497048 
L 357.249097 276.926454 
L 359.278187 247.469762 
L 360.495642 231.083823 
L 364.148006 179.556404 
L 364.553824 173.521587 
L 364.959642 280.662913 
L 367.394551 247.535208 
L 367.800369 185.392171 
L 368.612006 174.140103 
L 369.017824 281.614993 
L 373.887642 213.936597 
L 374.29346 264.556437 
L 377.540006 219.375965 
L 377.945824 214.129241 
L 378.351642 207.141934 
L 379.163278 196.539977 
L 380.380733 180.887526 
L 380.786551 230.295789 
L 381.598187 219.769814 
L 382.004006 214.507829 
L 382.409824 207.267506 
L 384.844733 174.706362 
L 385.250551 281.56357 
L 386.468006 264.605494 
L 386.468006 264.605494 
" style="fill:none;stroke:#1f77b4;stroke-linecap:square;stroke-width:1.5;"/>
   </g>
   <g id="patch_18">
    <path d="M 223.734915 288.430125 
L 223.734915 167.470125 
" style="fill:none;stroke:#000000;stroke-linecap:square;stroke-linejoin:miter;stroke-width:0.8;"/>
   </g>
   <g id="patch_19">
    <path d="M 386.062187 288.430125 
L 386.062187 167.470125 
" style="fill:none;stroke:#000000;stroke-linecap:square;stroke-linejoin:miter;stroke-width:0.8;"/>
   </g>
   <g id="patch_20">
    <path d="M 223.734915 288.430125 
L 386.062187 288.430125 
" style="fill:none;stroke:#000000;stroke-linecap:square;stroke-linejoin:miter;stroke-width:0.8;"/>
   </g>
   <g id="patch_21">
    <path d="M 223.734915 167.470125 
L 386.062187 167.470125 
" style="fill:none;stroke:#000000;stroke-linecap:square;stroke-linejoin:miter;stroke-width:0.8;"/>
   </g>
   <g id="text_24">
    <!-- Argument -->
    <g transform="translate(275.130114 161.470125)scale(0.12 -0.12)">
     <defs>
      <path d="M 34.1875 63.1875 
L 20.796875 26.90625 
L 47.609375 26.90625 
z
M 28.609375 72.90625 
L 39.796875 72.90625 
L 67.578125 0 
L 57.328125 0 
L 50.6875 18.703125 
L 17.828125 18.703125 
L 11.1875 0 
L 0.78125 0 
z
" id="DejaVuSans-65"/>
     </defs>
     <use xlink:href="#DejaVuSans-65"/>
     <use x="68.408203" xlink:href="#DejaVuSans-114"/>
     <use x="107.771484" xlink:href="#DejaVuSans-103"/>
     <use x="171.248047" xlink:href="#DejaVuSans-117"/>
     <use x="234.626953" xlink:href="#DejaVuSans-109"/>
     <use x="332.039062" xlink:href="#DejaVuSans-101"/>
     <use x="393.5625" xlink:href="#DejaVuSans-110"/>
     <use x="456.941406" xlink:href="#DejaVuSans-116"/>
    </g>
   </g>
  </g>
 </g>
 <defs>
  <clipPath id="pcec36c2960">
   <rect height="120.96" width="162.327273" x="28.942188" y="22.318125"/>
  </clipPath>
  <clipPath id="pabc7a69afb">
   <rect height="120.96" width="162.327273" x="223.734915" y="22.318125"/>
  </clipPath>
  <clipPath id="p710aeac829">
   <rect height="120.96" width="162.327273" x="28.942188" y="167.470125"/>
  </clipPath>
  <clipPath id="pe9f19c6f5a">
   <rect height="120.96" width="162.327273" x="223.734915" y="167.470125"/>
  </clipPath>
 </defs>
</svg>
